Massenspektrometer/Data/Argon_MS40(1).CSV

Model,TBS2102B
Firmware Version,v1.32.139

Point Format,Y,
Horizontal Units,S,
Horizontal Scale,2,
Sample Interval,0.016,
Filter Frequency,2e+08,
Record Length,2000,
Gating,0.0% to 100.0%,0.0% to 100.0%
Probe Attenuation,10,10
Vertical Units,V,V
Vertical Offset,0,0
Vertical Scale,100,10
Label,,
TIME,CH1,CH2
-1.600e+01,-440,33.6
-1.598e+01,-440,32.8
-1.597e+01,-444,32.8
-1.595e+01,-440,32.4
-1.594e+01,-444,32.4
-1.592e+01,-444,32.8
-1.590e+01,-444,33.2
-1.589e+01,-440,33.6
-1.587e+01,-440,34
-1.586e+01,-444,34
-1.584e+01,-440,34
-1.582e+01,-444,34.4
-1.581e+01,-440,34.4
-1.579e+01,-444,34.8
-1.578e+01,-444,34.4
-1.576e+01,-440,34.4
-1.574e+01,-444,34
-1.573e+01,-444,34.4
-1.571e+01,-440,34.4
-1.570e+01,-440,34.8
-1.568e+01,-440,34.8
-1.566e+01,-444,34.8
-1.565e+01,-444,34.4
-1.563e+01,-440,34.4
-1.562e+01,-444,34.4
-1.560e+01,-440,34.4
-1.558e+01,-444,34
-1.557e+01,-440,33.6
-1.555e+01,-440,33.2
-1.554e+01,-440,32.8
-1.552e+01,-444,32.8
-1.550e+01,-444,32.4
-1.549e+01,-440,32.4
-1.547e+01,-440,32.8
-1.546e+01,-444,32.8
-1.544e+01,-444,33.2
-1.542e+01,-440,33.6
-1.541e+01,-440,33.6
-1.539e+01,-436,34
-1.538e+01,-444,34
-1.536e+01,-440,34.4
-1.534e+01,-440,34
-1.533e+01,-440,34
-1.531e+01,-444,33.2
-1.530e+01,-440,33.2
-1.528e+01,-444,33.2
-1.526e+01,-440,33.6
-1.525e+01,-444,34
-1.523e+01,-444,34
-1.522e+01,-444,34
-1.520e+01,-444,34
-1.518e+01,-440,34.4
-1.517e+01,-440,33.6
-1.515e+01,-444,32.8
-1.514e+01,-444,32.4
-1.512e+01,-440,32.4
-1.510e+01,-444,32.4
-1.509e+01,-444,32.8
-1.507e+01,-444,33.2
-1.506e+01,-440,33.6
-1.504e+01,-444,34
-1.502e+01,-444,34
-1.501e+01,-440,34.4
-1.499e+01,-440,34.4
-1.498e+01,-444,33.6
-1.496e+01,-444,33.2
-1.494e+01,-440,32.4
-1.493e+01,-444,32
-1.491e+01,-440,32
-1.490e+01,-440,32
-1.488e+01,-440,32.4
-1.486e+01,-440,33.2
-1.485e+01,-444,34
-1.483e+01,-436,34
-1.482e+01,-440,34.8
-1.480e+01,-440,34
-1.478e+01,-440,34
-1.477e+01,-440,32.8
-1.475e+01,-444,32.4
-1.474e+01,-444,32
-1.472e+01,-440,32
-1.470e+01,-440,31.6
-1.469e+01,-440,32
-1.467e+01,-440,32.4
-1.466e+01,-440,32.8
-1.464e+01,-440,33.2
-1.462e+01,-436,32.8
-1.461e+01,-444,32.4
-1.459e+01,-440,32.4
-1.458e+01,-444,32
-1.456e+01,-444,32
-1.454e+01,-440,32
-1.453e+01,-444,32.4
-1.451e+01,-440,32.8
-1.450e+01,-440,33.2
-1.448e+01,-440,33.2
-1.446e+01,-444,34
-1.445e+01,-440,34.4
-1.443e+01,-440,34
-1.442e+01,-440,34
-1.440e+01,-444,34
-1.438e+01,-440,32.8
-1.437e+01,-444,32.4
-1.435e+01,-440,30.8
-1.434e+01,-440,30.8
-1.432e+01,-444,30.8
-1.430e+01,-444,31.6
-1.429e+01,-440,32.4
-1.427e+01,-440,33.6
-1.426e+01,-440,34
-1.424e+01,-440,34.4
-1.422e+01,-440,34
-1.421e+01,-444,33.2
-1.419e+01,-440,32
-1.418e+01,-444,31.6
-1.416e+01,-440,31.2
-1.414e+01,-440,32
-1.413e+01,-440,32.4
-1.411e+01,-444,32.4
-1.410e+01,-444,32.8
-1.408e+01,-440,33.2
-1.406e+01,-444,33.2
-1.405e+01,-440,32.8
-1.403e+01,-444,32
-1.402e+01,-444,32
-1.400e+01,-440,32
-1.398e+01,-440,32.4
-1.397e+01,-440,32.8
-1.395e+01,-440,33.2
-1.394e+01,-440,32.8
-1.392e+01,-440,32.8
-1.390e+01,-444,33.2
-1.389e+01,-440,33.2
-1.387e+01,-444,33.6
-1.386e+01,-440,34
-1.384e+01,-440,33.6
-1.382e+01,-444,32.8
-1.381e+01,-440,32.4
-1.379e+01,-440,32
-1.378e+01,-440,32
-1.376e+01,-440,32
-1.374e+01,-440,32
-1.373e+01,-440,32.4
-1.371e+01,-444,32.4
-1.370e+01,-440,32
-1.368e+01,-444,32
-1.366e+01,-444,32
-1.365e+01,-444,32
-1.363e+01,-436,32
-1.362e+01,-440,31.6
-1.360e+01,-440,32
-1.358e+01,-440,32
-1.357e+01,-440,32
-1.355e+01,-444,31.2
-1.354e+01,-440,30.8
-1.352e+01,-440,30.4
-1.350e+01,-444,30.4
-1.349e+01,-444,30.4
-1.347e+01,-440,30.8
-1.346e+01,-440,31.2
-1.344e+01,-440,31.6
-1.342e+01,-444,32.4
-1.341e+01,-440,33.2
-1.339e+01,-440,34
-1.338e+01,-440,33.6
-1.336e+01,-440,33.6
-1.334e+01,-440,33.2
-1.333e+01,-444,33.2
-1.331e+01,-444,32.8
-1.330e+01,-444,32.8
-1.328e+01,-444,32
-1.326e+01,-444,31.6
-1.325e+01,-444,31.6
-1.323e+01,-440,31.2
-1.322e+01,-440,31.2
-1.320e+01,-444,32
-1.318e+01,-440,32.4
-1.317e+01,-444,32
-1.315e+01,-444,31.6
-1.314e+01,-448,31.6
-1.312e+01,-444,31.6
-1.310e+01,-444,31.6
-1.309e+01,-440,32
-1.307e+01,-440,32.8
-1.306e+01,-444,34.4
-1.304e+01,-444,35.2
-1.302e+01,-440,36
-1.301e+01,-444,36
-1.299e+01,-440,35.6
-1.298e+01,-440,34.4
-1.296e+01,-440,33.6
-1.294e+01,-440,32.4
-1.293e+01,-444,32
-1.291e+01,-444,31.6
-1.290e+01,-440,32
-1.288e+01,-440,32.4
-1.286e+01,-444,33.2
-1.285e+01,-444,32.8
-1.283e+01,-440,32.4
-1.282e+01,-444,32
-1.280e+01,-440,32
-1.278e+01,-444,32
-1.277e+01,-440,32
-1.275e+01,-444,32.4
-1.274e+01,-444,33.2
-1.272e+01,-440,34.4
-1.270e+01,-444,34.8
-1.269e+01,-440,36
-1.267e+01,-440,35.6
-1.266e+01,-440,35.6
-1.264e+01,-444,34.4
-1.262e+01,-440,32.8
-1.261e+01,-444,31.6
-1.259e+01,-440,30.4
-1.258e+01,-444,30.4
-1.256e+01,-444,30.8
-1.254e+01,-440,31.2
-1.253e+01,-444,32
-1.251e+01,-444,32.4
-1.250e+01,-444,32.4
-1.248e+01,-444,32.4
-1.246e+01,-444,31.6
-1.245e+01,-444,31.6
-1.243e+01,-444,31.2
-1.242e+01,-440,31.2
-1.240e+01,-440,31.6
-1.238e+01,-444,32.8
-1.237e+01,-444,33.2
-1.235e+01,-444,33.6
-1.234e+01,-440,33.2
-1.232e+01,-440,32
-1.230e+01,-444,30.8
-1.229e+01,-444,29.6
-1.227e+01,-444,28.8
-1.226e+01,-440,28.4
-1.224e+01,-440,29.2
-1.222e+01,-440,30
-1.221e+01,-440,30.8
-1.219e+01,-444,31.6
-1.218e+01,-444,32
-1.216e+01,-440,31.2
-1.214e+01,-440,31.2
-1.213e+01,-440,30.4
-1.211e+01,-444,30.4
-1.210e+01,-444,30
-1.208e+01,-444,30
-1.206e+01,-440,29.6
-1.205e+01,-440,30
-1.203e+01,-444,30
-1.202e+01,-440,30.8
-1.200e+01,-444,31.6
-1.198e+01,-444,31.6
-1.197e+01,-444,31.6
-1.195e+01,-440,31.6
-1.194e+01,-440,31.2
-1.192e+01,-440,30.4
-1.190e+01,-444,29.6
-1.189e+01,-440,29.2
-1.187e+01,-448,29.2
-1.186e+01,-440,29.2
-1.184e+01,-440,30
-1.182e+01,-440,30.8
-1.181e+01,-440,32
-1.179e+01,-440,32
-1.178e+01,-440,31.6
-1.176e+01,-440,31.2
-1.174e+01,-440,30.4
-1.173e+01,-444,29.6
-1.171e+01,-440,29.2
-1.170e+01,-440,30
-1.168e+01,-444,30.8
-1.166e+01,-444,31.6
-1.165e+01,-444,32
-1.163e+01,-444,32
-1.162e+01,-444,31.6
-1.160e+01,-440,31.6
-1.158e+01,-440,30.8
-1.157e+01,-440,30.8
-1.155e+01,-444,30.8
-1.154e+01,-440,30.8
-1.152e+01,-440,31.6
-1.150e+01,-444,32.4
-1.149e+01,-440,32.4
-1.147e+01,-444,33.2
-1.146e+01,-444,32.8
-1.144e+01,-440,32.8
-1.142e+01,-444,32.4
-1.141e+01,-440,32.8
-1.139e+01,-440,32
-1.138e+01,-440,32
-1.136e+01,-444,32
-1.134e+01,-444,31.6
-1.133e+01,-444,32
-1.131e+01,-440,31.6
-1.130e+01,-440,31.6
-1.128e+01,-440,31.2
-1.126e+01,-440,30.8
-1.125e+01,-440,30.8
-1.123e+01,-444,31.6
-1.122e+01,-440,31.6
-1.120e+01,-440,31.6
-1.118e+01,-444,30.8
-1.117e+01,-444,30
-1.115e+01,-444,28.8
-1.114e+01,-444,28.4
-1.112e+01,-440,28
-1.110e+01,-444,27.6
-1.109e+01,-440,28
-1.107e+01,-444,28.8
-1.106e+01,-440,29.6
-1.104e+01,-440,30.4
-1.102e+01,-440,30.4
-1.101e+01,-444,30.8
-1.099e+01,-444,30.8
-1.098e+01,-440,30.8
-1.096e+01,-444,31.2
-1.094e+01,-440,30.8
-1.093e+01,-444,32
-1.091e+01,-440,32.4
-1.090e+01,-440,33.2
-1.088e+01,-444,32.4
-1.086e+01,-444,32
-1.085e+01,-444,30.4
-1.083e+01,-444,29.6
-1.082e+01,-440,28.4
-1.080e+01,-444,28.8
-1.078e+01,-440,29.2
-1.077e+01,-440,31.2
-1.075e+01,-440,32
-1.074e+01,-440,33.2
-1.072e+01,-440,33.6
-1.070e+01,-444,32.8
-1.069e+01,-444,32.4
-1.067e+01,-440,31.6
-1.066e+01,-444,30.8
-1.064e+01,-444,30.4
-1.062e+01,-444,30.8
-1.061e+01,-444,31.6
-1.059e+01,-440,32.8
-1.058e+01,-440,34
-1.056e+01,-440,34.4
-1.054e+01,-444,34
-1.053e+01,-440,33.2
-1.051e+01,-440,32
-1.050e+01,-444,30.8
-1.048e+01,-440,29.6
-1.046e+01,-444,30
-1.045e+01,-444,29.6
-1.043e+01,-440,30.4
-1.042e+01,-440,30.8
-1.040e+01,-440,31.6
-1.038e+01,-444,31.6
-1.037e+01,-444,31.6
-1.035e+01,-440,31.2
-1.034e+01,-440,30.4
-1.032e+01,-440,30
-1.030e+01,-440,30
-1.029e+01,-440,30
-1.027e+01,-444,29.6
-1.026e+01,-444,30.4
-1.024e+01,-444,30.4
-1.022e+01,-444,30.8
-1.021e+01,-440,30.8
-1.019e+01,-444,31.6
-1.018e+01,-440,31.6
-1.016e+01,-444,32
-1.014e+01,-440,32.4
-1.013e+01,-444,32.4
-1.011e+01,-444,31.6
-1.010e+01,-440,30
-1.008e+01,-444,29.2
-1.006e+01,-440,28
-1.005e+01,-444,28
-1.003e+01,-444,28.8
-1.002e+01,-440,30
-1.000e+01,-440,31.2
-9.984e+00,-440,32.4
-9.968e+00,-440,32.8
-9.952e+00,-440,32.8
-9.936e+00,-440,32.4
-9.920e+00,-440,31.6
-9.904e+00,-440,31.2
-9.888e+00,-444,30.8
-9.872e+00,-444,30.8
-9.856e+00,-444,30.8
-9.840e+00,-440,31.2
-9.824e+00,-440,32
-9.808e+00,-444,31.2
-9.792e+00,-444,30.8
-9.776e+00,-444,30
-9.760e+00,-440,29.2
-9.744e+00,-440,29.6
-9.728e+00,-440,30.4
-9.712e+00,-444,31.2
-9.696e+00,-440,32.4
-9.680e+00,-440,33.6
-9.664e+00,-444,33.6
-9.648e+00,-444,34
-9.632e+00,-440,33.2
-9.616e+00,-440,32.4
-9.600e+00,-440,31.6
-9.584e+00,-440,30.8
-9.568e+00,-444,30.8
-9.552e+00,-448,31.2
-9.536e+00,-440,31.6
-9.520e+00,-444,32.8
-9.504e+00,-444,32.8
-9.488e+00,-440,32
-9.472e+00,-440,30.8
-9.456e+00,-444,29.2
-9.440e+00,-440,28
-9.424e+00,-444,27.2
-9.408e+00,-444,27.6
-9.392e+00,-440,28
-9.376e+00,-440,29.6
-9.360e+00,-444,30.4
-9.344e+00,-440,31.2
-9.328e+00,-440,30.8
-9.312e+00,-440,30.4
-9.296e+00,-444,30.4
-9.280e+00,-444,29.6
-9.264e+00,-440,30
-9.248e+00,-440,30.4
-9.232e+00,-440,30.4
-9.216e+00,-444,31.2
-9.200e+00,-440,31.2
-9.184e+00,-436,32
-9.168e+00,-444,32.4
-9.152e+00,-440,32
-9.136e+00,-444,31.2
-9.120e+00,-444,30.4
-9.104e+00,-440,30.4
-9.088e+00,-444,30.8
-9.072e+00,-440,32
-9.056e+00,-444,32.4
-9.040e+00,-440,33.2
-9.024e+00,-440,32.8
-9.008e+00,-440,32.4
-8.992e+00,-444,30.8
-8.976e+00,-440,29.6
-8.960e+00,-440,29.2
-8.944e+00,-436,29.2
-8.928e+00,-440,29.2
-8.912e+00,-440,30
-8.896e+00,-444,30.8
-8.880e+00,-440,31.6
-8.864e+00,-444,32
-8.848e+00,-440,32
-8.832e+00,-444,32.4
-8.816e+00,-444,31.2
-8.800e+00,-444,30.8
-8.784e+00,-440,30
-8.768e+00,-440,28.8
-8.752e+00,-440,28.4
-8.736e+00,-444,28
-8.720e+00,-444,28.4
-8.704e+00,-444,29.2
-8.688e+00,-440,29.6
-8.672e+00,-440,30.8
-8.656e+00,-440,30.8
-8.640e+00,-444,31.6
-8.624e+00,-440,32
-8.608e+00,-444,32
-8.592e+00,-444,32
-8.576e+00,-444,32
-8.560e+00,-440,32
-8.544e+00,-444,32
-8.528e+00,-444,32.4
-8.512e+00,-444,32
-8.496e+00,-444,32.8
-8.480e+00,-440,32.8
-8.464e+00,-440,33.6
-8.448e+00,-440,34
-8.432e+00,-444,34.4
-8.416e+00,-440,34
-8.400e+00,-444,33.2
-8.384e+00,-440,31.6
-8.368e+00,-444,30
-8.352e+00,-444,28.8
-8.336e+00,-440,28.4
-8.320e+00,-444,28
-8.304e+00,-440,28.4
-8.288e+00,-440,28.4
-8.272e+00,-444,28.4
-8.256e+00,-440,28.8
-8.240e+00,-444,29.6
-8.224e+00,-444,29.6
-8.208e+00,-444,28.8
-8.192e+00,-444,28.4
-8.176e+00,-440,27.6
-8.160e+00,-444,27.6
-8.144e+00,-444,28
-8.128e+00,-440,28.8
-8.112e+00,-444,29.6
-8.096e+00,-444,30.4
-8.080e+00,-444,30.4
-8.064e+00,-444,29.6
-8.048e+00,-444,28
-8.032e+00,-444,27.2
-8.016e+00,-440,26.4
-8.000e+00,-444,26.8
-7.984e+00,-444,28
-7.968e+00,-444,29.2
-7.952e+00,-440,30.8
-7.936e+00,-440,31.2
-7.920e+00,-444,30.8
-7.904e+00,-440,30
-7.888e+00,-444,29.2
-7.872e+00,-444,28
-7.856e+00,-444,28
-7.840e+00,-440,28
-7.824e+00,-444,29.6
-7.808e+00,-440,30.4
-7.792e+00,-444,31.6
-7.776e+00,-444,32
-7.760e+00,-440,32
-7.744e+00,-440,31.2
-7.728e+00,-444,30.4
-7.712e+00,-440,30
-7.696e+00,-440,29.6
-7.680e+00,-440,30.8
-7.664e+00,-440,31.6
-7.648e+00,-444,32.4
-7.632e+00,-436,32.8
-7.616e+00,-440,33.2
-7.600e+00,-440,32.4
-7.584e+00,-444,31.6
-7.568e+00,-440,30.8
-7.552e+00,-440,30
-7.536e+00,-444,30
-7.520e+00,-444,30.4
-7.504e+00,-444,30.4
-7.488e+00,-440,31.6
-7.472e+00,-444,32
-7.456e+00,-440,32.4
-7.440e+00,-440,32
-7.424e+00,-440,31.2
-7.408e+00,-440,30
-7.392e+00,-440,29.2
-7.376e+00,-440,28.8
-7.360e+00,-444,29.2
-7.344e+00,-444,30.4
-7.328e+00,-444,31.6
-7.312e+00,-444,32.4
-7.296e+00,-440,31.6
-7.280e+00,-444,31.2
-7.264e+00,-440,30
-7.248e+00,-440,29.2
-7.232e+00,-444,28.8
-7.216e+00,-440,29.2
-7.200e+00,-444,29.6
-7.184e+00,-440,30.4
-7.168e+00,-440,30.8
-7.152e+00,-440,30.8
-7.136e+00,-440,30
-7.120e+00,-444,30
-7.104e+00,-440,29.6
-7.088e+00,-440,29.6
-7.072e+00,-440,29.2
-7.056e+00,-444,29.2
-7.040e+00,-444,29.6
-7.024e+00,-440,29.6
-7.008e+00,-444,30
-6.992e+00,-440,29.6
-6.976e+00,-444,30
-6.960e+00,-440,30.4
-6.944e+00,-444,30.8
-6.928e+00,-444,31.6
-6.912e+00,-440,32.4
-6.896e+00,-440,33.2
-6.880e+00,-440,33.2
-6.864e+00,-440,32.8
-6.848e+00,-444,32
-6.832e+00,-444,30.4
-6.816e+00,-444,30
-6.800e+00,-440,29.2
-6.784e+00,-444,28.8
-6.768e+00,-444,29.2
-6.752e+00,-444,29.2
-6.736e+00,-440,30
-6.720e+00,-440,30.8
-6.704e+00,-440,31.6
-6.688e+00,-440,32
-6.672e+00,-444,32.4
-6.656e+00,-444,32
-6.640e+00,-436,32
-6.624e+00,-444,31.6
-6.608e+00,-440,32
-6.592e+00,-440,31.6
-6.576e+00,-444,31.6
-6.560e+00,-440,30.8
-6.544e+00,-440,30.8
-6.528e+00,-444,30.4
-6.512e+00,-444,30.4
-6.496e+00,-440,30.8
-6.480e+00,-440,31.2
-6.464e+00,-444,31.2
-6.448e+00,-444,31.6
-6.432e+00,-444,32
-6.416e+00,-444,31.6
-6.400e+00,-444,30.8
-6.384e+00,-440,30
-6.368e+00,-440,29.6
-6.352e+00,-444,29.6
-6.336e+00,-444,30.4
-6.320e+00,-440,30.8
-6.304e+00,-440,31.2
-6.288e+00,-440,31.2
-6.272e+00,-440,31.2
-6.256e+00,-440,30.4
-6.240e+00,-440,30.4
-6.224e+00,-444,30
-6.208e+00,-440,30
-6.192e+00,-440,30
-6.176e+00,-444,30.4
-6.160e+00,-444,30.8
-6.144e+00,-444,31.2
-6.128e+00,-436,31.6
-6.112e+00,-444,30.8
-6.096e+00,-444,30.8
-6.080e+00,-444,29.6
-6.064e+00,-440,29.6
-6.048e+00,-440,28.8
-6.032e+00,-444,29.6
-6.016e+00,-440,29.6
-6.000e+00,-444,30.8
-5.984e+00,-444,30.8
-5.968e+00,-440,30.8
-5.952e+00,-444,30.8
-5.936e+00,-444,30.8
-5.920e+00,-444,30
-5.904e+00,-440,30.4
-5.888e+00,-444,30.4
-5.872e+00,-444,31.6
-5.856e+00,-440,32.4
-5.840e+00,-444,33.2
-5.824e+00,-440,33.6
-5.808e+00,-440,33.2
-5.792e+00,-444,32
-5.776e+00,-440,30.8
-5.760e+00,-440,30
-5.744e+00,-444,30.4
-5.728e+00,-440,30.8
-5.712e+00,-440,31.6
-5.696e+00,-440,32.4
-5.680e+00,-444,33.2
-5.664e+00,-440,33.6
-5.648e+00,-444,32.8
-5.632e+00,-440,32
-5.616e+00,-440,30.4
-5.600e+00,-444,28.8
-5.584e+00,-440,28
-5.568e+00,-440,27.6
-5.552e+00,-444,28
-5.536e+00,-444,28.8
-5.520e+00,-444,29.6
-5.504e+00,-440,30.8
-5.488e+00,-440,31.2
-5.472e+00,-444,31.6
-5.456e+00,-444,31.2
-5.440e+00,-444,30.4
-5.424e+00,-444,30
-5.408e+00,-440,30
-5.392e+00,-444,30.4
-5.376e+00,-440,31.2
-5.360e+00,-440,32.4
-5.344e+00,-444,32.8
-5.328e+00,-444,32.8
-5.312e+00,-444,32.8
-5.296e+00,-444,32
-5.280e+00,-444,30.8
-5.264e+00,-440,29.6
-5.248e+00,-444,29.2
-5.232e+00,-444,29.6
-5.216e+00,-440,30
-5.200e+00,-448,30.8
-5.184e+00,-444,31.6
-5.168e+00,-440,31.6
-5.152e+00,-440,32
-5.136e+00,-444,31.2
-5.120e+00,-440,30.8
-5.104e+00,-440,29.2
-5.088e+00,-440,28.8
-5.072e+00,-444,28.8
-5.056e+00,-444,29.6
-5.040e+00,-444,30.8
-5.024e+00,-440,31.6
-5.008e+00,-444,32.4
-4.992e+00,-444,33.2
-4.976e+00,-444,32.8
-4.960e+00,-444,32
-4.944e+00,-440,31.6
-4.928e+00,-444,30.8
-4.912e+00,-444,30.8
-4.896e+00,-436,30.8
-4.880e+00,-444,30.8
-4.864e+00,-444,31.2
-4.848e+00,-444,31.6
-4.832e+00,-440,31.6
-4.816e+00,-440,32
-4.800e+00,-444,31.6
-4.784e+00,-444,32
-4.768e+00,-440,32
-4.752e+00,-444,32.4
-4.736e+00,-440,32.4
-4.720e+00,-440,33.2
-4.704e+00,-440,33.6
-4.688e+00,-444,34.4
-4.672e+00,-440,34
-4.656e+00,-440,33.6
-4.640e+00,-440,32.4
-4.624e+00,-444,30.8
-4.608e+00,-440,29.6
-4.592e+00,-444,28
-4.576e+00,-444,27.6
-4.560e+00,-444,26.8
-4.544e+00,-444,26.8
-4.528e+00,-444,27.6
-4.512e+00,-444,28.8
-4.496e+00,-444,30
-4.480e+00,-440,31.2
-4.464e+00,-444,31.6
-4.448e+00,-444,32
-4.432e+00,-444,31.6
-4.416e+00,-444,31.2
-4.400e+00,-444,30.8
-4.384e+00,-448,30.4
-4.368e+00,-444,30.4
-4.352e+00,-444,30.8
-4.336e+00,-444,31.2
-4.320e+00,-444,30.8
-4.304e+00,-440,30.4
-4.288e+00,-444,29.6
-4.272e+00,-444,28.4
-4.256e+00,-444,27.2
-4.240e+00,-444,26.8
-4.224e+00,-444,26.8
-4.208e+00,-440,27.6
-4.192e+00,-444,28.4
-4.176e+00,-444,29.6
-4.160e+00,-444,30.4
-4.144e+00,-444,30.4
-4.128e+00,-440,30
-4.112e+00,-444,29.6
-4.096e+00,-444,28.4
-4.080e+00,-444,28.4
-4.064e+00,-444,28.4
-4.048e+00,-444,28.4
-4.032e+00,-444,28.8
-4.016e+00,-444,29.2
-4.000e+00,-444,30.4
-3.984e+00,-444,31.2
-3.968e+00,-440,31.6
-3.952e+00,-444,31.6
-3.936e+00,-440,31.2
-3.920e+00,-444,30
-3.904e+00,-444,29.6
-3.888e+00,-444,29.2
-3.872e+00,-444,29.2
-3.856e+00,-444,29.2
-3.840e+00,-444,29.6
-3.824e+00,-444,30
-3.808e+00,-444,30
-3.792e+00,-448,29.2
-3.776e+00,-444,29.2
-3.760e+00,-444,29.6
-3.744e+00,-444,30.4
-3.728e+00,-440,31.2
-3.712e+00,-444,31.6
-3.696e+00,-444,32
-3.680e+00,-440,31.2
-3.664e+00,-444,30
-3.648e+00,-440,28.8
-3.632e+00,-444,28
-3.616e+00,-444,28.4
-3.600e+00,-440,28.8
-3.584e+00,-444,30
-3.568e+00,-444,31.6
-3.552e+00,-444,32.4
-3.536e+00,-444,33.2
-3.520e+00,-440,33.2
-3.504e+00,-444,32.8
-3.488e+00,-444,32
-3.472e+00,-440,31.6
-3.456e+00,-444,31.2
-3.440e+00,-448,31.2
-3.424e+00,-444,30.8
-3.408e+00,-444,30.4
-3.392e+00,-444,29.6
-3.376e+00,-444,28.4
-3.360e+00,-440,27.6
-3.344e+00,-444,26
-3.328e+00,-444,25.2
-3.312e+00,-444,24.8
-3.296e+00,-444,25.6
-3.280e+00,-444,26.4
-3.264e+00,-444,28
-3.248e+00,-444,28.4
-3.232e+00,-444,29.2
-3.216e+00,-444,28.4
-3.200e+00,-444,29.2
-3.184e+00,-444,28.8
-3.168e+00,-440,29.6
-3.152e+00,-444,30.4
-3.136e+00,-444,31.2
-3.120e+00,-440,32
-3.104e+00,-448,32
-3.088e+00,-440,32.4
-3.072e+00,-444,31.6
-3.056e+00,-448,30.4
-3.040e+00,-444,29.2
-3.024e+00,-444,28
-3.008e+00,-448,27.2
-2.992e+00,-444,27.6
-2.976e+00,-448,28
-2.960e+00,-444,28.8
-2.944e+00,-444,29.6
-2.928e+00,-444,30.8
-2.912e+00,-444,30.8
-2.896e+00,-444,30.8
-2.880e+00,-444,30
-2.864e+00,-444,29.6
-2.848e+00,-444,29.2
-2.832e+00,-444,29.6
-2.816e+00,-448,30
-2.800e+00,-444,31.2
-2.784e+00,-444,32.8
-2.768e+00,-444,34
-2.752e+00,-448,34.8
-2.736e+00,-444,34.8
-2.720e+00,-444,33.6
-2.704e+00,-448,31.6
-2.688e+00,-444,29.6
-2.672e+00,-448,28.4
-2.656e+00,-444,27.6
-2.640e+00,-444,27.6
-2.624e+00,-448,28
-2.608e+00,-448,28.4
-2.592e+00,-448,28.8
-2.576e+00,-448,28.8
-2.560e+00,-448,28.8
-2.544e+00,-448,28.8
-2.528e+00,-448,28.8
-2.512e+00,-448,28.8
-2.496e+00,-448,30
-2.480e+00,-448,30.8
-2.464e+00,-448,32
-2.448e+00,-448,32.4
-2.432e+00,-452,32.4
-2.416e+00,-448,31.6
-2.400e+00,-448,30.8
-2.384e+00,-448,30
-2.368e+00,-444,29.6
-2.352e+00,-452,29.6
-2.336e+00,-448,30.4
-2.320e+00,-444,30.8
-2.304e+00,-452,30.8
-2.288e+00,-448,30.8
-2.272e+00,-448,30.4
-2.256e+00,-448,29.6
-2.240e+00,-448,28.4
-2.224e+00,-448,27.6
-2.208e+00,-448,27.6
-2.192e+00,-448,27.6
-2.176e+00,-448,28.4
-2.160e+00,-448,29.2
-2.144e+00,-448,30.4
-2.128e+00,-448,30.4
-2.112e+00,-444,30
-2.096e+00,-448,29.2
-2.080e+00,-448,28.8
-2.064e+00,-444,28
-2.048e+00,-448,29.2
-2.032e+00,-448,29.6
-2.016e+00,-448,31.2
-2.000e+00,-448,31.6
-1.984e+00,-444,32.4
-1.968e+00,-448,31.6
-1.952e+00,-444,30.4
-1.936e+00,-448,29.6
-1.920e+00,-448,29.6
-1.904e+00,-448,30.4
-1.888e+00,-448,31.2
-1.872e+00,-448,31.6
-1.856e+00,-444,32
-1.840e+00,-448,32
-1.824e+00,-444,31.2
-1.808e+00,-448,30
-1.792e+00,-448,28.8
-1.776e+00,-448,28
-1.760e+00,-448,27.6
-1.744e+00,-448,28
-1.728e+00,-448,28.4
-1.712e+00,-448,29.2
-1.696e+00,-448,29.2
-1.680e+00,-448,30
-1.664e+00,-448,29.6
-1.648e+00,-448,29.6
-1.632e+00,-448,29.6
-1.616e+00,-448,29.6
-1.600e+00,-452,30.4
-1.584e+00,-448,30.8
-1.568e+00,-448,31.2
-1.552e+00,-448,31.2
-1.536e+00,-444,30.8
-1.520e+00,-444,29.6
-1.504e+00,-448,29.6
-1.488e+00,-448,28.4
-1.472e+00,-448,28.4
-1.456e+00,-448,27.6
-1.440e+00,-444,27.6
-1.424e+00,-448,27.6
-1.408e+00,-448,27.6
-1.392e+00,-448,28
-1.376e+00,-448,28.8
-1.360e+00,-452,29.6
-1.344e+00,-452,30.8
-1.328e+00,-448,32
-1.312e+00,-452,32.8
-1.296e+00,-448,33.2
-1.280e+00,-448,32.8
-1.264e+00,-448,31.6
-1.248e+00,-452,30
-1.232e+00,-448,28.8
-1.216e+00,-448,27.2
-1.200e+00,-452,27.2
-1.184e+00,-448,27.6
-1.168e+00,-448,28.8
-1.152e+00,-448,29.2
-1.136e+00,-448,30
-1.120e+00,-448,30
-1.104e+00,-448,30
-1.088e+00,-448,29.6
-1.072e+00,-452,29.2
-1.056e+00,-452,28.8
-1.040e+00,-452,29.2
-1.024e+00,-448,29.2
-1.008e+00,-448,29.2
-9.920e-01,-452,29.6
-9.760e-01,-452,28.8
-9.600e-01,-448,28.4
-9.440e-01,-448,28
-9.280e-01,-452,28
-9.120e-01,-452,28.4
-8.960e-01,-452,28.8
-8.800e-01,-456,29.2
-8.640e-01,-452,30.4
-8.480e-01,-452,30.8
-8.320e-01,-452,31.6
-8.160e-01,-452,31.2
-8.000e-01,-448,30.4
-7.840e-01,-452,28.8
-7.680e-01,-448,27.6
-7.520e-01,-452,27.2
-7.360e-01,-452,27.2
-7.200e-01,-452,27.2
-7.040e-01,-452,27.6
-6.880e-01,-448,27.6
