Massenspektrometer/Data/Propan_E80.CSV

Model,TBS2102B
Firmware Version,v1.32.139

Point Format,Y,
Horizontal Units,S,
Horizontal Scale,0.4,
Sample Interval,0.0032,
Filter Frequency,2e+08,
Record Length,2000,
Gating,0.0% to 100.0%,0.0% to 100.0%
Probe Attenuation,10,10
Vertical Units,V,V
Vertical Offset,0,0
Vertical Scale,10,5
Label,,
TIME,CH1,CH2
-3.200e+00,95.8,1
-3.197e+00,96.2,0.8
-3.194e+00,95.4,0.8
-3.190e+00,96.2,1.2
-3.187e+00,96.6,1.6
-3.184e+00,96.6,1.8
-3.181e+00,97.4,1.8
-3.178e+00,97.8,1.6
-3.174e+00,96.6,1.2
-3.171e+00,97,1
-3.168e+00,97,0.8
-3.165e+00,98.2,0.8
-3.162e+00,97,1
-3.158e+00,97,1.2
-3.155e+00,97.4,1.2
-3.152e+00,97.4,1.4
-3.149e+00,97.8,1.6
-3.146e+00,97.4,1.6
-3.142e+00,97.4,1.6
-3.139e+00,97.4,1.4
-3.136e+00,97.4,1
-3.133e+00,97.8,0.8
-3.130e+00,97.8,0.6
-3.126e+00,97.8,0.8
-3.123e+00,98.2,1.2
-3.120e+00,97.8,1.6
-3.117e+00,98.2,1.8
-3.114e+00,97.8,1.8
-3.110e+00,97.8,1.6
-3.107e+00,97.8,1.2
-3.104e+00,97.8,1
-3.101e+00,98.2,1
-3.098e+00,98.2,1
-3.094e+00,98.2,1.2
-3.091e+00,98.2,1.2
-3.088e+00,98.2,1.2
-3.085e+00,98.2,1.2
-3.082e+00,98.6,1.4
-3.078e+00,98.6,1.4
-3.075e+00,98.6,1.4
-3.072e+00,98.6,1.4
-3.069e+00,99,1.2
-3.066e+00,99.4,0.8
-3.062e+00,99,0.8
-3.059e+00,99.4,0.8
-3.056e+00,99,1.2
-3.053e+00,99.4,1.4
-3.050e+00,99.4,1.8
-3.046e+00,98.2,1.8
-3.043e+00,99,1.4
-3.040e+00,99.8,1.4
-3.037e+00,99.4,1
-3.034e+00,99.4,1
-3.030e+00,99.4,0.8
-3.027e+00,99.4,1
-3.024e+00,99.4,1
-3.021e+00,99,1
-3.018e+00,99.4,1.2
-3.014e+00,99.4,1.6
-3.011e+00,99,1.8
-3.008e+00,99.4,1.8
-3.005e+00,99.4,1.4
-3.002e+00,99.4,1
-2.998e+00,99.4,0.6
-2.995e+00,99.4,0.4
-2.992e+00,99.4,0.6
-2.989e+00,99.4,1.2
-2.986e+00,99.4,1.6
-2.982e+00,99.4,1.8
-2.979e+00,99.4,1.8
-2.976e+00,99.4,1.4
-2.973e+00,81.8,-0.4
-2.970e+00,45.4,-0.4
-2.966e+00,10.2,-0.4
-2.963e+00,0.200001,0
-2.960e+00,0.200001,-0.2
-2.957e+00,0.200001,-0.4
-2.954e+00,0.600001,-0.4
-2.950e+00,1,-0.4
-2.947e+00,0.600001,-0.4
-2.944e+00,0.600001,-0.4
-2.941e+00,0.600001,-0.4
-2.938e+00,0.600001,-0.4
-2.934e+00,1,-0.4
-2.931e+00,0.600001,-0.4
-2.928e+00,0.600001,-0.4
-2.925e+00,1,-0.4
-2.922e+00,1,-0.4
-2.918e+00,1.4,-0.4
-2.915e+00,1,-0.4
-2.912e+00,1,-0.4
-2.909e+00,0.600001,-0.4
-2.906e+00,1.4,-0.4
-2.902e+00,1.8,-0.4
-2.899e+00,1.4,-0.4
-2.896e+00,1.8,-0.4
-2.893e+00,2.2,-0.4
-2.890e+00,1.8,-0.2
-2.886e+00,1.8,0
-2.883e+00,1.8,0.4
-2.880e+00,2.6,0.8
-2.877e+00,1.4,1
-2.874e+00,1.8,1
-2.870e+00,2.2,0.8
-2.867e+00,2.2,0.4
-2.864e+00,1.8,0.2
-2.861e+00,2.6,0
-2.858e+00,2.6,0.2
-2.854e+00,2.6,0.4
-2.851e+00,2.2,0.8
-2.848e+00,3,1.2
-2.845e+00,2.6,1.2
-2.842e+00,2.6,1
-2.838e+00,2.6,1
-2.835e+00,3,0.4
-2.832e+00,2.2,0.4
-2.829e+00,3,0.4
-2.826e+00,3,0.4
-2.822e+00,3,0.6
-2.819e+00,3.4,0.6
-2.816e+00,3.8,1
-2.813e+00,3.8,1.2
-2.810e+00,3.4,1.4
-2.806e+00,3.4,1.2
-2.803e+00,3.4,1.2
-2.800e+00,3.8,0.8
-2.797e+00,4.2,0.6
-2.794e+00,3.8,0.4
-2.790e+00,3.8,0.6
-2.787e+00,3.8,1
-2.784e+00,3,1.2
-2.781e+00,4.2,1.4
-2.778e+00,4.2,1.4
-2.774e+00,3.8,1.2
-2.771e+00,4.2,0.8
-2.768e+00,4.2,1
-2.765e+00,4.2,0.6
-2.762e+00,4.2,1
-2.758e+00,4.2,0.8
-2.755e+00,4.6,0.6
-2.752e+00,5,0.8
-2.749e+00,5,1
-2.746e+00,4.6,1.2
-2.742e+00,4.2,1.4
-2.739e+00,5,1.4
-2.736e+00,4.2,1.2
-2.733e+00,5,0.8
-2.730e+00,5,0.6
-2.726e+00,4.6,0.4
-2.723e+00,5.4,0.6
-2.720e+00,5.4,0.8
-2.717e+00,5.4,1.2
-2.714e+00,5.4,1.2
-2.710e+00,6.2,1.4
-2.707e+00,5.8,1.4
-2.704e+00,5.4,1.2
-2.701e+00,5.4,1
-2.698e+00,5.8,0.8
-2.694e+00,6.2,0.8
-2.691e+00,5.8,0.8
-2.688e+00,5.4,0.6
-2.685e+00,5.8,0.8
-2.682e+00,6.2,1.2
-2.678e+00,5.8,1.4
-2.675e+00,6.2,1.6
-2.672e+00,6.2,1.6
-2.669e+00,6.2,1.4
-2.666e+00,6.6,1
-2.662e+00,6.6,0.4
-2.659e+00,6.2,0.4
-2.656e+00,6.6,0.6
-2.653e+00,6.6,0.8
-2.650e+00,6.6,1.4
-2.646e+00,6.6,1.4
-2.643e+00,6.6,1.4
-2.640e+00,7,1.4
-2.637e+00,7,1.2
-2.634e+00,7,1
-2.630e+00,7.8,1
-2.627e+00,7,1
-2.624e+00,7,0.8
-2.621e+00,7,0.8
-2.618e+00,7,0.8
-2.614e+00,7.4,1
-2.611e+00,7.8,1.4
-2.608e+00,7.4,1.6
-2.605e+00,7.8,1.4
-2.602e+00,7.4,1.4
-2.598e+00,7.8,1.2
-2.595e+00,7.4,0.8
-2.592e+00,7.8,0.6
-2.589e+00,7.8,0.8
-2.586e+00,8.2,1
-2.582e+00,7.8,1
-2.579e+00,7.8,1.2
-2.576e+00,7.4,1.4
-2.573e+00,8.2,1.4
-2.570e+00,8.2,1.4
-2.566e+00,8.6,1.2
-2.563e+00,8.6,1.2
-2.560e+00,7.8,1
-2.557e+00,9,0.8
-2.554e+00,8.6,0.8
-2.550e+00,8.2,1
-2.547e+00,8.2,1.2
-2.544e+00,8.6,1.4
-2.541e+00,8.6,1.6
-2.538e+00,9,1.4
-2.534e+00,9,1.2
-2.531e+00,9,1
-2.528e+00,9,0.6
-2.525e+00,9.4,0.4
-2.522e+00,9,0.8
-2.518e+00,9.8,1
-2.515e+00,9,1
-2.512e+00,9,1.4
-2.509e+00,9.8,1.4
-2.506e+00,9.8,1.4
-2.502e+00,10.2,1.4
-2.499e+00,9.8,1.2
-2.496e+00,9,1
-2.493e+00,9.8,0.8
-2.490e+00,9.4,0.8
-2.486e+00,9.8,0.8
-2.483e+00,10.2,0.8
-2.480e+00,9.8,1.2
-2.477e+00,10.2,1.6
-2.474e+00,9,1.6
-2.470e+00,11,1.6
-2.467e+00,10.2,1.4
-2.464e+00,9.8,1
-2.461e+00,10.6,0.6
-2.458e+00,10.6,0.6
-2.454e+00,10.2,0.6
-2.451e+00,10.6,1
-2.448e+00,10.6,1.2
-2.445e+00,11,1.4
-2.442e+00,11.8,1.4
-2.438e+00,10.6,1.4
-2.435e+00,11,1.4
-2.432e+00,11,1.4
-2.429e+00,11,1.2
-2.426e+00,9.8,1
-2.422e+00,11.4,0.8
-2.419e+00,11.4,0.6
-2.416e+00,11,0.6
-2.413e+00,11.4,1
-2.410e+00,10.6,1.4
-2.406e+00,11.4,1.6
-2.403e+00,11.4,1.8
-2.400e+00,11,1.4
-2.397e+00,11.8,1.2
-2.394e+00,12.2,0.8
-2.390e+00,13,1
-2.387e+00,11.8,1
-2.384e+00,12.2,1
-2.381e+00,12.2,1.2
-2.378e+00,13,1.2
-2.374e+00,10.6,1.4
-2.371e+00,12.2,1.4
-2.368e+00,12.6,1.6
-2.365e+00,12.2,1.4
-2.362e+00,11.8,1.4
-2.358e+00,12.6,1
-2.355e+00,12.6,0.8
-2.352e+00,12.2,0.6
-2.349e+00,12.6,1
-2.346e+00,11.8,1.2
-2.342e+00,12.6,1.6
-2.339e+00,12.6,1.8
-2.336e+00,13,1.8
-2.333e+00,13,1.2
-2.330e+00,13,1
-2.326e+00,13,0.8
-2.323e+00,13.4,0.8
-2.320e+00,13,1
-2.317e+00,13.4,1.2
-2.314e+00,13.8,1.4
-2.310e+00,13.4,1.4
-2.307e+00,13.4,1.4
-2.304e+00,13.8,1.4
-2.301e+00,13.4,1.4
-2.298e+00,13.4,1.4
-2.294e+00,14.2,1.2
-2.291e+00,13.8,1
-2.288e+00,14.2,0.8
-2.285e+00,13.8,0.8
-2.282e+00,14.2,0.8
-2.278e+00,14.2,1.2
-2.275e+00,14.2,1.4
-2.272e+00,14.6,1.8
-2.269e+00,14.2,1.8
-2.266e+00,13.4,1.4
-2.262e+00,14.2,1.2
-2.259e+00,14.2,1
-2.256e+00,14.6,0.8
-2.253e+00,14.6,0.8
-2.250e+00,14.6,1
-2.246e+00,14.6,1.2
-2.243e+00,14.6,1.2
-2.240e+00,14.6,1.4
-2.237e+00,14.6,1.6
-2.234e+00,15,1.6
-2.230e+00,15,1.6
-2.227e+00,15.4,1.4
-2.224e+00,15,1
-2.221e+00,15.4,0.8
-2.218e+00,15,0.6
-2.214e+00,15,0.8
-2.211e+00,13.8,1.2
-2.208e+00,15,1.4
-2.205e+00,15.4,1.8
-2.202e+00,15.4,1.8
-2.198e+00,15.4,1.6
-2.195e+00,15.4,1.2
-2.192e+00,15.4,0.8
-2.189e+00,15.8,1
-2.186e+00,15.8,0.8
-2.182e+00,15.8,1
-2.179e+00,16.2,1.2
-2.176e+00,16.6,1.2
-2.173e+00,16.2,1.4
-2.170e+00,15.8,1.6
-2.166e+00,16.2,1.6
-2.163e+00,15.8,1.4
-2.160e+00,16.2,1.4
-2.157e+00,16.2,1
-2.154e+00,16.2,0.8
-2.150e+00,16.6,0.6
-2.147e+00,17,0.8
-2.144e+00,16.6,1
-2.141e+00,17,1.4
-2.138e+00,17,1.6
-2.134e+00,16.6,1.6
-2.131e+00,17.4,1.4
-2.128e+00,17,1
-2.125e+00,16.6,0.8
-2.122e+00,16.2,1
-2.118e+00,17.4,1
-2.115e+00,16.2,1
-2.112e+00,17,1.2
-2.109e+00,16.6,1.4
-2.106e+00,17.4,1.2
-2.102e+00,17.4,1.4
-2.099e+00,16.6,1.6
-2.096e+00,17.4,1.6
-2.093e+00,17.8,1.4
-2.090e+00,17.4,1.2
-2.086e+00,17.8,0.8
-2.083e+00,17,0.6
-2.080e+00,17.8,0.8
-2.077e+00,17.8,1
-2.074e+00,17.8,1.4
-2.070e+00,18.2,1.6
-2.067e+00,18.2,1.8
-2.064e+00,17.8,1.6
-2.061e+00,18.2,1.4
-2.058e+00,18.2,1.2
-2.054e+00,17.8,0.8
-2.051e+00,18.6,1
-2.048e+00,18.6,1
-2.045e+00,18.2,1
-2.042e+00,17.8,1.2
-2.038e+00,18.6,1.4
-2.035e+00,18.2,1.6
-2.032e+00,18.6,1.6
-2.029e+00,18.6,1.6
-2.026e+00,19,1.4
-2.022e+00,19,1
-2.019e+00,19,0.8
-2.016e+00,19.4,0.6
-2.013e+00,19,0.8
-2.010e+00,19,1.2
-2.006e+00,19,1.6
-2.003e+00,19,1.8
-2.000e+00,19,1.8
-1.997e+00,19.8,1.4
-1.994e+00,19.4,1.2
-1.990e+00,19.4,1
-1.987e+00,19,1
-1.984e+00,19.8,1
-1.981e+00,19.4,1
-1.978e+00,19.8,1
-1.974e+00,19.4,1.2
-1.971e+00,19.4,1.4
-1.968e+00,19.8,1.6
-1.965e+00,19.8,1.6
-1.962e+00,19.8,1.6
-1.958e+00,20.2,1.4
-1.955e+00,19.8,1.2
-1.952e+00,20.2,0.8
-1.949e+00,20.2,0.6
-1.946e+00,20.6,0.8
-1.942e+00,20.2,1
-1.939e+00,21.8,1.4
-1.936e+00,21.4,1.6
-1.933e+00,20.6,1.6
-1.930e+00,20.2,1.6
-1.926e+00,20.6,1.4
-1.923e+00,20.2,1.2
-1.920e+00,21,1
-1.917e+00,21,1
-1.914e+00,21,1
-1.910e+00,21.4,0.8
-1.907e+00,21.4,0.8
-1.904e+00,21,1.2
-1.901e+00,21.4,1.6
-1.898e+00,21.4,1.8
-1.894e+00,21.4,1.6
-1.891e+00,21.4,1.4
-1.888e+00,21.8,1
-1.885e+00,21.8,0.6
-1.882e+00,22.2,0.6
-1.878e+00,21.8,0.8
-1.875e+00,23,1.2
-1.872e+00,21.8,1.6
-1.869e+00,21.8,1.8
-1.866e+00,22.2,1.6
-1.862e+00,22.2,1.4
-1.859e+00,23,1
-1.856e+00,23,1
-1.853e+00,22.6,1
-1.850e+00,22.6,1
-1.846e+00,22.2,1
-1.843e+00,22.6,1
-1.840e+00,22.6,1.2
-1.837e+00,22.6,1.2
-1.834e+00,22.6,1.6
-1.830e+00,22.6,1.8
-1.827e+00,23,1.8
-1.824e+00,23,1.4
-1.821e+00,23,1.2
-1.818e+00,23,0.8
-1.814e+00,23,0.8
-1.811e+00,23,1
-1.808e+00,23,1.2
-1.805e+00,23.4,1.6
-1.802e+00,23.4,1.8
-1.798e+00,23.8,1.8
-1.795e+00,22.6,1.6
-1.792e+00,23.4,1.4
-1.789e+00,23.8,1.4
-1.786e+00,23.8,1.2
-1.782e+00,23.8,1
-1.779e+00,24.2,1
-1.776e+00,23.4,1
-1.773e+00,23.8,1
-1.770e+00,23.8,1.2
-1.766e+00,23.8,1.6
-1.763e+00,24.2,1.8
-1.760e+00,24.2,1.8
-1.757e+00,24.2,1.8
-1.754e+00,24.2,1.2
-1.750e+00,24.2,1
-1.747e+00,25.4,0.6
-1.744e+00,24.2,0.6
-1.741e+00,24.2,1
-1.738e+00,24.2,1.4
-1.734e+00,24.6,1.6
-1.731e+00,23.8,1.8
-1.728e+00,24.6,1.8
-1.725e+00,24.6,1.6
-1.722e+00,24.6,1.4
-1.718e+00,25,1.2
-1.715e+00,25.4,1
-1.712e+00,25,1
-1.709e+00,25,1
-1.706e+00,25,1
-1.702e+00,25.4,1.4
-1.699e+00,25.4,1.6
-1.696e+00,25.8,1.8
-1.693e+00,25.8,1.8
-1.690e+00,25.4,1.6
-1.686e+00,25.8,1.2
-1.683e+00,27,0.8
-1.680e+00,25.8,0.8
-1.677e+00,25.4,1
-1.674e+00,25.8,1.4
-1.670e+00,25.8,1.6
-1.667e+00,26.2,1.6
-1.664e+00,25.8,1.6
-1.661e+00,26.2,1.4
-1.658e+00,26.2,1.2
-1.654e+00,26.2,1.2
-1.651e+00,25.4,1.2
-1.648e+00,26.2,1.2
-1.645e+00,26.6,1.2
-1.642e+00,26.2,1.2
-1.638e+00,26.2,1.2
-1.635e+00,27.4,1.4
-1.632e+00,26.6,1.8
-1.629e+00,26.6,2.2
-1.626e+00,26.6,2.2
-1.622e+00,26.6,2
-1.619e+00,27,1.6
-1.616e+00,26.2,1.4
-1.613e+00,27,1.2
-1.610e+00,27.4,1.4
-1.606e+00,27,1.6
-1.603e+00,27.8,1.8
-1.600e+00,27,2
-1.597e+00,27.4,2.2
-1.594e+00,27.4,2.2
-1.590e+00,27.4,2.2
-1.587e+00,28.6,2
-1.584e+00,27.4,1.6
-1.581e+00,27.4,1.6
-1.578e+00,27.4,1.4
-1.574e+00,27.8,1.2
-1.571e+00,27,1.4
-1.568e+00,27.8,1.8
-1.565e+00,27.8,2
-1.562e+00,27.8,2.4
-1.558e+00,28.2,2.2
-1.555e+00,28.2,2
-1.552e+00,28.6,1.4
-1.549e+00,27.8,1.2
-1.546e+00,27.8,1
-1.542e+00,27.8,1.2
-1.539e+00,27.8,1.4
-1.536e+00,29.4,1.8
-1.533e+00,28.6,2
-1.530e+00,28.6,2.2
-1.526e+00,28.2,2.2
-1.523e+00,29.4,2.2
-1.520e+00,29,2.2
-1.517e+00,28.6,2.2
-1.514e+00,28.6,2
-1.510e+00,29,2
-1.507e+00,29,1.8
-1.504e+00,29,2
-1.501e+00,29,2.4
-1.498e+00,29.8,2.6
-1.494e+00,28.6,2.8
-1.491e+00,29.4,2.8
-1.488e+00,29,2.6
-1.485e+00,29.4,2.4
-1.482e+00,29,2
-1.478e+00,29.4,1.8
-1.475e+00,29.4,2
-1.472e+00,30.2,2.2
-1.469e+00,29.4,2.4
-1.466e+00,29.4,2.4
-1.462e+00,29.4,2.4
-1.459e+00,30.2,2.4
-1.456e+00,29.8,2.2
-1.453e+00,30.2,2.2
-1.450e+00,29.8,2
-1.446e+00,29.8,1.4
-1.443e+00,30.2,1.2
-1.440e+00,29.8,0.8
-1.437e+00,30.2,1
-1.434e+00,30.6,1
-1.430e+00,30.2,1.8
-1.427e+00,30.2,2
-1.424e+00,30.2,1.8
-1.421e+00,30.6,1.6
-1.418e+00,31.4,1.4
-1.414e+00,31,1
-1.411e+00,31,1
-1.408e+00,30.6,1
-1.405e+00,30.6,1.2
-1.402e+00,31,1.4
-1.398e+00,31,1.6
-1.395e+00,31,1.4
-1.392e+00,30.6,1.6
-1.389e+00,31,1.8
-1.386e+00,31,1.4
-1.382e+00,31,1.4
-1.379e+00,31,1.2
-1.376e+00,31.4,0.8
-1.373e+00,31,0.8
-1.370e+00,31.8,1
-1.366e+00,31.4,1.4
-1.363e+00,31.4,1.6
-1.360e+00,31.4,2
-1.357e+00,31.8,1.8
-1.354e+00,31.8,1.4
-1.350e+00,31.4,1.2
-1.347e+00,32.2,1
-1.344e+00,31.8,1
-1.341e+00,31.8,0.8
-1.338e+00,32.2,1.2
-1.334e+00,32.2,1.4
-1.331e+00,32.2,1.4
-1.328e+00,33,1.4
-1.325e+00,32.2,1.4
-1.322e+00,31.8,1.4
-1.318e+00,32.6,1.6
-1.315e+00,32.6,1.4
-1.312e+00,32.6,1
-1.309e+00,32.6,1
-1.306e+00,32.2,0.8
-1.302e+00,32.6,0.8
-1.299e+00,32.6,1.2
-1.296e+00,31.8,1.4
-1.293e+00,33,1.8
-1.290e+00,33,1.8
-1.286e+00,33,1.6
-1.283e+00,34.2,1.4
-1.280e+00,33,1
-1.277e+00,33,1
-1.274e+00,33.4,0.8
-1.270e+00,33,1
-1.267e+00,34.2,1.2
-1.264e+00,33.4,1.4
-1.261e+00,33.4,1.6
-1.258e+00,33.8,1.6
-1.254e+00,33.8,1.6
-1.251e+00,32.6,1.6
-1.248e+00,34.2,1.4
-1.245e+00,33.8,1.2
-1.242e+00,33.8,0.6
-1.238e+00,33.8,0.8
-1.235e+00,33,0.8
-1.232e+00,35,1.2
-1.229e+00,34.2,1.8
-1.226e+00,34.2,2
-1.222e+00,34.2,2
-1.219e+00,34.2,1.8
-1.216e+00,34.2,1.2
-1.213e+00,34.6,1.2
-1.210e+00,34.2,1
-1.206e+00,34.6,1.2
-1.203e+00,34.6,1.4
-1.200e+00,34.6,1.6
-1.197e+00,34.6,1.6
-1.194e+00,34.6,1.4
-1.190e+00,35,1.6
-1.187e+00,33.4,1.8
-1.184e+00,35,1.8
-1.181e+00,35,1.6
-1.178e+00,35,1.4
-1.174e+00,35,1.2
-1.171e+00,36.6,1
-1.168e+00,35.4,1.2
-1.165e+00,35.4,1.4
-1.162e+00,35.4,1.8
-1.158e+00,35.4,2
-1.155e+00,35.8,1.8
-1.152e+00,35,1.8
-1.149e+00,35.8,1.6
-1.146e+00,35.8,1.2
-1.142e+00,35.8,1
-1.139e+00,34.6,1
-1.136e+00,36.2,1.2
-1.133e+00,36.2,1.2
-1.130e+00,36.2,1.4
-1.126e+00,36.2,1.6
-1.123e+00,37,1.6
-1.120e+00,36.2,2
-1.117e+00,36.2,1.8
-1.114e+00,36.6,1.8
-1.110e+00,36.6,1.4
-1.107e+00,36.6,1.2
-1.104e+00,36.6,0.8
-1.101e+00,36.6,1.2
-1.098e+00,36.6,1.4
-1.094e+00,37,1.8
-1.091e+00,36.2,2.2
-1.088e+00,37,2.2
-1.085e+00,37,2
-1.082e+00,37.4,1.6
-1.078e+00,37,1.4
-1.075e+00,37.8,1.4
-1.072e+00,37.4,1.4
-1.069e+00,37,1.4
-1.066e+00,37.4,1.4
-1.062e+00,37.4,1.8
-1.059e+00,38.6,1.8
-1.056e+00,38.6,2
-1.053e+00,37.8,2
-1.050e+00,37.4,2.2
-1.046e+00,37.8,1.8
-1.043e+00,38.2,1.4
-1.040e+00,37.8,1.2
-1.037e+00,38.2,1
-1.034e+00,38.2,1
-1.030e+00,38.2,1.4
-1.027e+00,37.8,1.8
-1.024e+00,38.2,2
-1.021e+00,38.2,2
-1.018e+00,38.2,1.8
-1.014e+00,38.2,1.6
-1.011e+00,39,1.4
-1.008e+00,38.6,1.6
-1.005e+00,38.6,1.6
-1.002e+00,38.2,1.6
-9.984e-01,38.6,1.6
-9.952e-01,37.8,1.6
-9.920e-01,38.6,1.6
-9.888e-01,39,1.8
-9.856e-01,39,2
-9.824e-01,39,2.2
-9.792e-01,38.2,2
-9.760e-01,38.6,1.6
-9.728e-01,39.4,1.2
-9.696e-01,39,1
-9.664e-01,39.4,1
-9.632e-01,39.8,1.4
-9.600e-01,39.4,1.8
-9.568e-01,39.4,2
-9.536e-01,39.4,2
-9.504e-01,39.4,2
-9.472e-01,39,1.8
-9.440e-01,39.8,1.4
-9.408e-01,39.8,1
-9.376e-01,39.8,1.2
-9.344e-01,40.2,1
-9.312e-01,39,1
-9.280e-01,40.6,1.4
-9.248e-01,40.2,1.4
-9.216e-01,40.2,1.8
-9.184e-01,40.2,1.8
-9.152e-01,40.6,1.8
-9.120e-01,40.2,1.6
-9.088e-01,40.2,1.2
-9.056e-01,41,0.8
-9.024e-01,40.6,0.8
-8.992e-01,41,0.8
-8.960e-01,42.2,1.2
-8.928e-01,41,1.6
-8.896e-01,41,1.8
-8.864e-01,41,1.6
-8.832e-01,41.8,1.4
-8.800e-01,41,1.4
-8.768e-01,41,1.2
-8.736e-01,41,1
-8.704e-01,41.4,1
-8.672e-01,42.2,1
-8.640e-01,41.4,1
-8.608e-01,41.4,1.2
-8.576e-01,41.4,1.2
-8.544e-01,41.4,1.4
-8.512e-01,42.2,1.6
-8.480e-01,41.4,1.6
-8.448e-01,41.4,1.6
-8.416e-01,41.8,1.2
-8.384e-01,41.8,1
-8.352e-01,42.2,0.6
-8.320e-01,42.2,0.8
-8.288e-01,41.8,1
-8.256e-01,41.8,1.4
-8.224e-01,42.2,1.4
-8.192e-01,42.2,1.6
-8.160e-01,43,1.6
-8.128e-01,42.2,1.2
-8.096e-01,42.2,1.4
-8.064e-01,42.2,1.2
-8.032e-01,41.8,1
-8.000e-01,42.6,1
-7.968e-01,43,1
-7.936e-01,43,1
-7.904e-01,43,1.2
-7.872e-01,42.6,1.6
-7.840e-01,43,1.8
-7.808e-01,43,1.8
-7.776e-01,43,1.6
-7.744e-01,43,1.2
-7.712e-01,43,0.6
-7.680e-01,43,0.6
-7.648e-01,43,0.6
-7.616e-01,43.4,1
-7.584e-01,43.4,1.4
-7.552e-01,44.2,1.6
-7.520e-01,43,1.6
-7.488e-01,43.4,1.6
-7.456e-01,43.4,1.4
-7.424e-01,43.8,1.4
-7.392e-01,44.6,1.2
-7.360e-01,43.8,1
-7.328e-01,43.8,1
-7.296e-01,43.8,0.8
-7.264e-01,44.2,0.8
-7.232e-01,44.2,1.2
-7.200e-01,44.2,1.6
-7.168e-01,44.2,1.6
-7.136e-01,44.2,1.4
-7.104e-01,44.6,1.4
-7.072e-01,43.8,1.2
-7.040e-01,44.6,0.8
-7.008e-01,44.6,0.8
-6.976e-01,44.6,1
-6.944e-01,44.6,1
-6.912e-01,45.8,1.4
-6.880e-01,45.4,1.6
-6.848e-01,45,1.4
-6.816e-01,45,1.4
-6.784e-01,45,1.4
-6.752e-01,43.8,1.4
-6.720e-01,45,1.4
-6.688e-01,45,1.2
-6.656e-01,45.4,0.8
-6.624e-01,45.4,0.8
-6.592e-01,44.2,0.8
-6.560e-01,45.8,1.2
-6.528e-01,45.4,1.4
-6.496e-01,45.8,1.8
-6.464e-01,45.4,1.8
-6.432e-01,45.8,1.6
-6.400e-01,45.4,1.2
-6.368e-01,45.8,0.8
-6.336e-01,45.8,0.6
-6.304e-01,45.8,0.6
-6.272e-01,45.4,1
-6.240e-01,45.8,1.2
-6.208e-01,45.8,1.6
-6.176e-01,46.2,1.8
-6.144e-01,46.6,1.4
-6.112e-01,46.6,1.6
-6.080e-01,46.6,1.4
-6.048e-01,46.6,1.2
-6.016e-01,46.2,1
-5.984e-01,46.6,0.8
-5.952e-01,47,0.8
-5.920e-01,47,1
-5.888e-01,46.6,1.4
-5.856e-01,47,1.6
-5.824e-01,47,1.8
-5.792e-01,45.8,1.8
-5.760e-01,46.6,1.4
-5.728e-01,47,1
-5.696e-01,47,1
-5.664e-01,47,0.8
-5.632e-01,47.8,0.8
-5.600e-01,47.4,1.2
-5.568e-01,47.4,1.4
-5.536e-01,47.4,1.4
-5.504e-01,47.4,1.6
-5.472e-01,47,1.6
-5.440e-01,47.4,1.4
-5.408e-01,47.8,1.4
-5.376e-01,47.8,1.4
-5.344e-01,47.8,1.2
-5.312e-01,47.8,1
-5.280e-01,47.8,0.8
-5.248e-01,47.8,0.8
-5.216e-01,49,1.2
-5.184e-01,48.2,1.4
-5.152e-01,48.6,1.8
-5.120e-01,48.2,1.8
-5.088e-01,48.2,1.6
-5.056e-01,48.6,1.4
-5.024e-01,48.6,1
-4.992e-01,48.6,1
-4.960e-01,48.6,1
-4.928e-01,48.6,1.2
-4.896e-01,49,1.4
-4.864e-01,48.6,1.6
-4.832e-01,47.8,1.6
-4.800e-01,49,1.6
-4.768e-01,49,1.6
-4.736e-01,49,1.6
-4.704e-01,49,1.6
-4.672e-01,49,1.2
-4.640e-01,49,1
-4.608e-01,49.4,1
-4.576e-01,49.4,1
-4.544e-01,49,1.2
-4.512e-01,48.6,1.8
-4.480e-01,49.4,2
-4.448e-01,49.4,2
-4.416e-01,49.8,1.6
-4.384e-01,49.4,1.4
-4.352e-01,50.6,0.8
-4.320e-01,50.2,1
-4.288e-01,49.8,1.2
-4.256e-01,49.8,1.4
-4.224e-01,49.8,1.6
-4.192e-01,49.8,2.2
-4.160e-01,49.8,2.2
-4.128e-01,50.2,2.6
-4.096e-01,50.2,2.8
-4.064e-01,50.2,2.8
-4.032e-01,51,2.8
-4.000e-01,50.2,2.6
-3.968e-01,50.2,2.4
-3.936e-01,50.2,2.6
-3.904e-01,50.6,2.8
-3.872e-01,51.8,3.2
-3.840e-01,51,3.6
-3.808e-01,50.6,3.8
-3.776e-01,50.6,3.8
-3.744e-01,50.6,3.6
-3.712e-01,50.2,3.2
-3.680e-01,50.6,3.2
-3.648e-01,51,3
-3.616e-01,51,3
-3.584e-01,51,3.2
-3.552e-01,50.6,3.4
-3.520e-01,51.4,3.4
-3.488e-01,51.4,3.6
-3.456e-01,51,3.4
-3.424e-01,51.8,3.6
-3.392e-01,53,3.6
-3.360e-01,52.2,3.4
-3.328e-01,51.8,3
-3.296e-01,51.8,2.6
-3.264e-01,52.2,2.4
-3.232e-01,50.6,2.8
-3.200e-01,51.8,3.8
-3.168e-01,51.8,5
-3.136e-01,52.2,6.2
-3.104e-01,51.8,7.4
-3.072e-01,52.6,8
-3.040e-01,52.2,8.4
-3.008e-01,52.2,9
-2.976e-01,52.2,9.4
-2.944e-01,52.2,10
-2.912e-01,51.8,10.4
-2.880e-01,52.6,11
-2.848e-01,52.2,11.6
-2.816e-01,52.2,12.2
-2.784e-01,52.6,12.4
-2.752e-01,51.4,12.6
-2.720e-01,52.6,12.6
-2.688e-01,53,12.6
-2.656e-01,53,12.2
-2.624e-01,53.4,12
-2.592e-01,54.2,11.8
-2.560e-01,53.8,12
-2.528e-01,53,12.4
-2.496e-01,53,12.8
-2.464e-01,53.4,12.8
-2.432e-01,52.6,12.6
-2.400e-01,53.8,12.2
-2.368e-01,53.4,11.4
-2.336e-01,53.4,10.8
-2.304e-01,53.8,10.4
-2.272e-01,54.2,10
-2.240e-01,53.8,9.6
-2.208e-01,54.2,9.2
-2.176e-01,54.2,9.4
-2.144e-01,54.2,10
-2.112e-01,54.6,11.4
-2.080e-01,54.2,13.4
-2.048e-01,55,15
-2.016e-01,53,16.2
-1.984e-01,54.2,17.4
-1.952e-01,54.2,18.2
-1.920e-01,54.6,19
-1.888e-01,53.8,20.2
-1.856e-01,54.2,21.2
-1.824e-01,54.6,22.4
-1.792e-01,54.6,23
-1.760e-01,54.6,23.6
-1.728e-01,54.2,23.6
-1.696e-01,55.8,23.6
-1.664e-01,55,23.6
-1.632e-01,55,23.2
-1.600e-01,55,23.4
-1.568e-01,56.2,23.4
-1.536e-01,55.8,23.6
-1.504e-01,55.4,23.8
-1.472e-01,55.8,23.8
-1.440e-01,55.4,23.8
-1.408e-01,56.6,23.8
-1.376e-01,55.4,23.4
-1.344e-01,55.8,22.4
-1.312e-01,55.8,21.2
-1.280e-01,55.8,19.8
-1.248e-01,54.2,18.2
-1.216e-01,56.6,17
-1.184e-01,55.8,15.8
-1.152e-01,55.8,15
-1.120e-01,55.8,15
-1.088e-01,55.8,15.8
-1.056e-01,56.2,17
-1.024e-01,56.2,18.6
-9.920e-02,56.2,20.2
-9.600e-02,56.2,22.2
-9.280e-02,55.4,23.8
-8.960e-02,56.2,25.4
-8.640e-02,56.2,26.6
-8.320e-02,57.4,27.8
-8.000e-02,56.6,29
-7.680e-02,57.4,30
-7.360e-02,56.2,30.6
-7.040e-02,57,31.2
-6.720e-02,56.6,31.4
-6.400e-02,57.4,31.2
-6.080e-02,57,31
-5.760e-02,57,31
-5.440e-02,57,31.2
-5.120e-02,56.6,31.4
-4.800e-02,57.4,32
-4.480e-02,58.2,32.2
-4.160e-02,57.4,32.2
-3.840e-02,57.4,31.6
-3.520e-02,56.6,30.6
-3.200e-02,57.4,29.6
-2.880e-02,57.8,28.4
-2.560e-02,57.4,26.8
-2.240e-02,56.6,25
-1.920e-02,57.4,22.8
-1.600e-02,57.4,18.8
-1.280e-02,57.8,14.2
-9.600e-03,57.8,10
-6.400e-03,57.8,6.8
-3.200e-03,57.8,4.6
5.850e-14,58.2,3
3.200e-03,57.8,2
6.400e-03,58.2,1.4
9.600e-03,57.4,1.2
1.280e-02,58.6,1.2
1.600e-02,58.2,1.6
1.920e-02,58.2,2
2.240e-02,58.6,2.2
2.560e-02,59.8,2.4
2.880e-02,59,2.2
3.200e-02,58.6,2
3.520e-02,59,1.8
3.840e-02,59,1.8
4.160e-02,59,1.6
4.480e-02,59,1.6
4.800e-02,59,1.6
5.120e-02,59.4,1.8
5.440e-02,59,1.8
5.760e-02,59.8,2.2
6.080e-02,59.4,2.4
6.400e-02,59,2.2
6.720e-02,59.4,2
7.040e-02,59.4,1.8
7.360e-02,60.6,1.4
7.680e-02,59.4,1.2
8.000e-02,59.4,1.6
8.320e-02,59.8,1.6
