Massenspektrometer/Data/Propan_E60.CSV

Model,TBS2102B
Firmware Version,v1.32.139

Point Format,Y,
Horizontal Units,S,
Horizontal Scale,0.4,
Sample Interval,0.0032,
Filter Frequency,2e+08,
Record Length,2000,
Gating,0.0% to 100.0%,0.0% to 100.0%
Probe Attenuation,10,10
Vertical Units,V,V
Vertical Offset,0,0
Vertical Scale,10,5
Label,,
TIME,CH1,CH2
-3.200e+00,93.8,1.6
-3.197e+00,93,1.4
-3.194e+00,93,1.4
-3.190e+00,93,1.4
-3.187e+00,92.2,1.4
-3.184e+00,93,1.4
-3.181e+00,93.4,1.2
-3.178e+00,93.4,1.2
-3.174e+00,93.8,1.2
-3.171e+00,92.6,1
-3.168e+00,93.8,1
-3.165e+00,94.2,1.2
-3.162e+00,93.8,1.2
-3.158e+00,93.8,1.2
-3.155e+00,93.4,1.2
-3.152e+00,93.4,1
-3.149e+00,94.2,1
-3.146e+00,94.2,1
-3.142e+00,94.6,1
-3.139e+00,95,0.8
-3.136e+00,94.6,0.8
-3.133e+00,94.6,1
-3.130e+00,94.2,0.8
-3.126e+00,94.6,1
-3.123e+00,95.4,1
-3.120e+00,93.4,1
-3.117e+00,94.6,1
-3.114e+00,95,0.8
-3.110e+00,94.6,0.8
-3.107e+00,95,0.8
-3.104e+00,95,0.8
-3.101e+00,95,0.8
-3.098e+00,94.6,1
-3.094e+00,95,1
-3.091e+00,95,1
-3.088e+00,95.4,1
-3.085e+00,95.4,1
-3.082e+00,95.8,0.8
-3.078e+00,95.4,0.8
-3.075e+00,95.8,0.6
-3.072e+00,95,0.6
-3.069e+00,95.8,0.6
-3.066e+00,96.2,0.8
-3.062e+00,96.2,0.6
-3.059e+00,96.2,0.8
-3.056e+00,96.6,0.8
-3.053e+00,96.2,0.8
-3.050e+00,96.2,0.8
-3.046e+00,96.2,0.6
-3.043e+00,96.6,0.6
-3.040e+00,96.6,0.6
-3.037e+00,96.2,0.4
-3.034e+00,96.6,0.4
-3.030e+00,96.6,0.4
-3.027e+00,96.2,0.6
-3.024e+00,97,0.6
-3.021e+00,96.6,0.6
-3.018e+00,96.6,0.6
-3.014e+00,96.2,0.4
-3.011e+00,97,0.4
-3.008e+00,97,0.4
-3.005e+00,97,0.4
-3.002e+00,98.2,0.4
-2.998e+00,97.4,0.4
-2.995e+00,97,0.4
-2.992e+00,97.4,0.4
-2.989e+00,97,0.6
-2.986e+00,96.6,0.6
-2.982e+00,97.8,0.6
-2.979e+00,97.4,0.6
-2.976e+00,97.8,0.4
-2.973e+00,97.8,0.2
-2.970e+00,98.6,0.4
-2.966e+00,97.8,0.2
-2.963e+00,97.8,0.6
-2.960e+00,97.8,0.6
-2.957e+00,98.2,0.6
-2.954e+00,98.6,0.8
-2.950e+00,98.6,0.8
-2.947e+00,98.2,0.6
-2.944e+00,99,0.8
-2.941e+00,98.2,0.6
-2.938e+00,97.4,0.6
-2.934e+00,98.2,0.6
-2.931e+00,98.2,0.6
-2.928e+00,98.2,0.8
-2.925e+00,98.2,0.8
-2.922e+00,99,0.8
-2.918e+00,99,0.8
-2.915e+00,99,0.8
-2.912e+00,98.6,0.8
-2.909e+00,98.6,0.6
-2.906e+00,99,0.6
-2.902e+00,99,0.4
-2.899e+00,99,0.6
-2.896e+00,98.6,0.6
-2.893e+00,99,0.8
-2.890e+00,98.6,0.8
-2.886e+00,99.8,0.8
-2.883e+00,99.4,0.6
-2.880e+00,99.4,0.8
-2.877e+00,99.4,0.8
-2.874e+00,99,0.6
-2.870e+00,99.4,0.6
-2.867e+00,99.4,0.6
-2.864e+00,99.4,0.8
-2.861e+00,99.4,0.8
-2.858e+00,99,0.8
-2.854e+00,99.4,0.8
-2.851e+00,99.4,0.8
-2.848e+00,99.4,0.6
-2.845e+00,99.4,0.8
-2.842e+00,99.4,0.8
-2.838e+00,99.4,0.6
-2.835e+00,99.4,0.8
-2.832e+00,99.4,0.6
-2.829e+00,99.4,0.8
-2.826e+00,99.4,0.6
-2.822e+00,99.4,0.8
-2.819e+00,71.8,-0.4
-2.816e+00,35.8,-0.4
-2.813e+00,0.200001,-0.4
-2.810e+00,-0.999999,0.6
-2.806e+00,0.200001,0.6
-2.803e+00,0.600001,0.6
-2.800e+00,0.200001,0.6
-2.797e+00,0.600001,0.6
-2.794e+00,-0.999999,0.6
-2.790e+00,0.600001,0.6
-2.787e+00,0.600001,0.6
-2.784e+00,0.600001,0.6
-2.781e+00,1,0.6
-2.778e+00,1,0.6
-2.774e+00,2.2,0.6
-2.771e+00,1,0.4
-2.768e+00,1,0.4
-2.765e+00,1.4,0.2
-2.762e+00,1.4,0.6
-2.758e+00,1.4,0.6
-2.755e+00,1.4,0.6
-2.752e+00,1.4,0.8
-2.749e+00,1.4,0.6
-2.746e+00,1.4,0.8
-2.742e+00,1.8,0.6
-2.739e+00,1.8,0.6
-2.736e+00,1.8,0.6
-2.733e+00,1.8,0.6
-2.730e+00,1,0.6
-2.726e+00,1.8,0.4
-2.723e+00,1.8,0.8
-2.720e+00,2.6,0.8
-2.717e+00,2.2,0.8
-2.714e+00,2.2,0.8
-2.710e+00,2.6,0.8
-2.707e+00,2.6,0.6
-2.704e+00,3,0.6
-2.701e+00,2.6,0.8
-2.698e+00,2.6,0.8
-2.694e+00,3,0.8
-2.691e+00,2.6,1
-2.688e+00,3,0.8
-2.685e+00,2.6,1
-2.682e+00,3,1
-2.678e+00,3,0.8
-2.675e+00,3,1
-2.672e+00,2.6,1
-2.669e+00,3.4,1
-2.666e+00,3,1
-2.662e+00,3,1
-2.659e+00,3.4,1
-2.656e+00,3.4,1.2
-2.653e+00,3.8,1.2
-2.650e+00,3.4,1.2
-2.646e+00,3.4,1.2
-2.643e+00,3.8,1.2
-2.640e+00,4.2,1.2
-2.637e+00,3.4,1.2
-2.634e+00,3.8,1
-2.630e+00,4.2,1
-2.627e+00,3.8,1.2
-2.624e+00,4.6,1.4
-2.621e+00,4.2,1.4
-2.618e+00,4.2,1.4
-2.614e+00,4.6,1.2
-2.611e+00,4.2,1.4
-2.608e+00,5.4,1.2
-2.605e+00,4.6,1.2
-2.602e+00,4.6,1
-2.598e+00,4.6,1.2
-2.595e+00,4.6,1.2
-2.592e+00,4.2,1.2
-2.589e+00,5,1.2
-2.586e+00,5,1.2
-2.582e+00,5,1.2
-2.579e+00,5,1.2
-2.576e+00,5,1
-2.573e+00,5.4,1
-2.570e+00,5.4,0.8
-2.566e+00,6.2,0.8
-2.563e+00,5.4,0.8
-2.560e+00,4.6,1
-2.557e+00,4.6,1
-2.554e+00,5.8,1
-2.550e+00,5,1
-2.547e+00,5.8,1
-2.544e+00,6.2,1
-2.541e+00,5.4,1
-2.538e+00,5.8,1
-2.534e+00,5.8,0.8
-2.531e+00,5.8,1
-2.528e+00,5.4,0.8
-2.525e+00,6.2,0.8
-2.522e+00,6.2,1
-2.518e+00,6.2,1
-2.515e+00,6.6,0.8
-2.512e+00,6.6,0.8
-2.509e+00,6.6,1
-2.506e+00,6.6,0.8
-2.502e+00,6.2,0.8
-2.499e+00,6.6,0.8
-2.496e+00,7.8,0.8
-2.493e+00,7,1
-2.490e+00,7,0.8
-2.486e+00,7,1
-2.483e+00,7,1
-2.480e+00,6.2,0.8
-2.477e+00,8.2,1
-2.474e+00,7,1
-2.470e+00,7.8,1
-2.467e+00,7,1
-2.464e+00,7,1
-2.461e+00,8.2,0.8
-2.458e+00,7.4,0.8
-2.454e+00,7.4,1
-2.451e+00,7.8,1
-2.448e+00,7.4,1
-2.445e+00,7,0.8
-2.442e+00,7.8,1
-2.438e+00,7.4,0.8
-2.435e+00,7.8,0.8
-2.432e+00,8.2,0.8
-2.429e+00,8.2,0.8
-2.426e+00,7.8,0.8
-2.422e+00,8.2,1
-2.419e+00,8.6,1
-2.416e+00,8.2,1
-2.413e+00,8.6,1
-2.410e+00,8.2,1
-2.406e+00,8.2,0.8
-2.403e+00,8.6,0.6
-2.400e+00,8.6,0.6
-2.397e+00,9,0.8
-2.394e+00,8.6,0.8
-2.390e+00,8.6,0.6
-2.387e+00,9,0.8
-2.384e+00,9,0.8
-2.381e+00,9,0.8
-2.378e+00,9,0.8
-2.374e+00,9,0.6
-2.371e+00,9.4,0.6
-2.368e+00,9.4,0.6
-2.365e+00,9.8,0.6
-2.362e+00,9.4,0.4
-2.358e+00,8.6,0.6
-2.355e+00,9.8,0.6
-2.352e+00,9.8,0.6
-2.349e+00,9.8,0.6
-2.346e+00,9.4,0.6
-2.342e+00,10.2,0.6
-2.339e+00,9.8,0.6
-2.336e+00,10.2,0.6
-2.333e+00,9.4,0.4
-2.330e+00,9.8,0.6
-2.326e+00,9.8,0.6
-2.323e+00,10.2,0.6
-2.320e+00,10.2,0.6
-2.317e+00,10.2,0.6
-2.314e+00,10.2,0.8
-2.310e+00,9.8,0.8
-2.307e+00,10.6,0.8
-2.304e+00,10.2,0.8
-2.301e+00,10.6,0.6
-2.298e+00,10.6,0.6
-2.294e+00,11,0.6
-2.291e+00,10.6,0.6
-2.288e+00,10.6,0.6
-2.285e+00,11,0.8
-2.282e+00,10.6,0.8
-2.278e+00,11,0.8
-2.275e+00,11,0.6
-2.272e+00,11,0.8
-2.269e+00,11,0.6
-2.266e+00,11,0.6
-2.262e+00,11.8,0.6
-2.259e+00,10.6,0.6
-2.256e+00,11.4,0.6
-2.253e+00,11,0.6
-2.250e+00,11.4,0.8
-2.246e+00,11.4,0.8
-2.243e+00,11.8,0.6
-2.240e+00,11.8,0.6
-2.237e+00,11.8,0.6
-2.234e+00,11.4,0.4
-2.230e+00,11.8,0.6
-2.227e+00,11.8,0.6
-2.224e+00,12.2,0.6
-2.221e+00,12.2,0.4
-2.218e+00,12.2,0.6
-2.214e+00,13,0.6
-2.211e+00,13,0.8
-2.208e+00,12.2,0.8
-2.205e+00,12.2,0.8
-2.202e+00,12.6,0.6
-2.198e+00,12.2,0.6
-2.195e+00,12.2,0.6
-2.192e+00,12.6,0.4
-2.189e+00,12.6,0.6
-2.186e+00,12.6,0.4
-2.182e+00,11.4,0.6
-2.179e+00,12.2,0.6
-2.176e+00,13,0.6
-2.173e+00,13,0.6
-2.170e+00,13,0.6
-2.166e+00,12.6,0.6
-2.163e+00,13,0.6
-2.160e+00,13.4,0.4
-2.157e+00,13.4,0.4
-2.154e+00,13.4,0.4
-2.150e+00,13,0.4
-2.147e+00,13.4,0.6
-2.144e+00,13.8,0.6
-2.141e+00,13.8,0.6
-2.138e+00,13.8,0.6
-2.134e+00,14.6,0.6
-2.131e+00,13.4,0.4
-2.128e+00,13.8,0.6
-2.125e+00,14.2,0.4
-2.122e+00,14.2,0.4
-2.118e+00,12.6,0.6
-2.115e+00,15,0.8
-2.112e+00,13.8,0.6
-2.109e+00,14.2,0.8
-2.106e+00,14.2,0.6
-2.102e+00,13.4,0.4
-2.099e+00,14.6,0.4
-2.096e+00,14.6,0.4
-2.093e+00,15,0.2
-2.090e+00,14.6,0.2
-2.086e+00,14.6,0.4
-2.083e+00,14.6,0.4
-2.080e+00,15,0.6
-2.077e+00,15,0.6
-2.074e+00,15,0.6
-2.070e+00,16.2,0.6
-2.067e+00,15,0.6
-2.064e+00,15,0.6
-2.061e+00,15.4,0.6
-2.058e+00,15,0.4
-2.054e+00,15.4,0.4
-2.051e+00,15.8,0.4
-2.048e+00,15.4,0.4
-2.045e+00,15.4,0.6
-2.042e+00,15.8,0.6
-2.038e+00,15.8,0.6
-2.035e+00,16.2,0.4
-2.032e+00,15.8,0.6
-2.029e+00,15.8,0.4
-2.026e+00,15.8,0.4
-2.022e+00,15.8,0.4
-2.019e+00,15.8,0.4
-2.016e+00,16.2,0.4
-2.013e+00,15.8,0.4
-2.010e+00,16.2,0.4
-2.006e+00,16.6,0.4
-2.003e+00,16.2,0.6
-2.000e+00,16.2,0.8
-1.997e+00,16.6,0.6
-1.994e+00,16.6,0.6
-1.990e+00,15.4,0.6
-1.987e+00,17,0.6
-1.984e+00,16.6,0.6
-1.981e+00,17,0.8
-1.978e+00,16.6,0.8
-1.974e+00,16.6,0.8
-1.971e+00,16.6,0.6
-1.968e+00,17,0.6
-1.965e+00,17.4,0.6
-1.962e+00,16.6,0.6
-1.958e+00,17.4,0.4
-1.955e+00,17.8,0.6
-1.952e+00,17.4,0.8
-1.949e+00,17.8,0.8
-1.946e+00,17.4,0.8
-1.942e+00,17.4,0.8
-1.939e+00,17.4,0.8
-1.936e+00,17.8,0.8
-1.933e+00,17.8,0.8
-1.930e+00,17.8,0.4
-1.926e+00,17.8,0.6
-1.923e+00,17.8,0.4
-1.920e+00,17.8,0.6
-1.917e+00,17.4,0.6
-1.914e+00,18.2,0.6
-1.910e+00,18.2,0.8
-1.907e+00,18.2,0.8
-1.904e+00,18.2,0.8
-1.901e+00,17.4,0.6
-1.898e+00,18.2,0.6
-1.894e+00,17.8,0.6
-1.891e+00,18.6,0.4
-1.888e+00,18.2,0.4
-1.885e+00,19,0.6
-1.882e+00,18.2,0.6
-1.878e+00,18.6,0.6
-1.875e+00,18.6,0.6
-1.872e+00,18.6,0.6
-1.869e+00,18.2,0.6
-1.866e+00,19.4,0.4
-1.862e+00,19,0.6
-1.859e+00,19,0.6
-1.856e+00,19,0.4
-1.853e+00,19,0.4
-1.850e+00,19,0.4
-1.846e+00,19,0.4
-1.843e+00,19.8,0.6
-1.840e+00,19.4,0.6
-1.837e+00,20.6,0.6
-1.834e+00,19,0.6
-1.830e+00,19.8,0.6
-1.827e+00,19.8,0.6
-1.824e+00,19.8,0.4
-1.821e+00,20.2,0.6
-1.818e+00,19.4,0.6
-1.814e+00,19.8,0.6
-1.811e+00,19.4,0.6
-1.808e+00,20.2,0.6
-1.805e+00,19.8,0.8
-1.802e+00,20.2,0.8
-1.798e+00,20.2,0.8
-1.795e+00,20.2,0.6
-1.792e+00,20.6,0.6
-1.789e+00,21.4,0.6
-1.786e+00,20.6,0.6
-1.782e+00,20.6,0.6
-1.779e+00,20.6,0.6
-1.776e+00,20.6,0.6
-1.773e+00,21,0.6
-1.770e+00,21,0.4
-1.766e+00,21,0.4
-1.763e+00,20.6,0.4
-1.760e+00,21,0.4
-1.757e+00,21.4,0.4
-1.754e+00,20.6,0.4
-1.750e+00,21,0.6
-1.747e+00,21.8,0.2
-1.744e+00,21,0.6
-1.741e+00,21.8,0.6
-1.738e+00,21,0.6
-1.734e+00,21.4,0.4
-1.731e+00,21.8,0.4
-1.728e+00,21.4,0.2
-1.725e+00,21.8,0.2
-1.722e+00,21.4,0.4
-1.718e+00,21.8,0.4
-1.715e+00,21.8,0.4
-1.712e+00,21.8,0.4
-1.709e+00,22.6,0.6
-1.706e+00,21.8,0.6
-1.702e+00,22.2,0.6
-1.699e+00,22.6,0.6
-1.696e+00,22.2,0.4
-1.693e+00,22.6,0.4
-1.690e+00,22.6,0.2
-1.686e+00,22.2,0.4
-1.683e+00,22.6,0.4
-1.680e+00,23,0.4
-1.677e+00,22.2,0.6
-1.674e+00,21.8,0.6
-1.670e+00,23,0.8
-1.667e+00,22.6,0.6
-1.664e+00,23,0.6
-1.661e+00,22.2,0.4
-1.658e+00,23.4,0.4
-1.654e+00,23,0.4
-1.651e+00,23,0.4
-1.648e+00,23,0.4
-1.645e+00,24.6,0.4
-1.642e+00,23,0.6
-1.638e+00,23.4,0.4
-1.635e+00,23.4,0.6
-1.632e+00,23.4,0.4
-1.629e+00,23.4,0.6
-1.626e+00,23.4,0.6
-1.622e+00,23.8,0.4
-1.619e+00,23.8,0.4
-1.616e+00,23.8,0.4
-1.613e+00,23,0.6
-1.610e+00,23.8,0.6
-1.606e+00,24.2,0.6
-1.603e+00,24.6,0.6
-1.600e+00,24.2,0.6
-1.597e+00,23,0.4
-1.594e+00,23.4,0.6
-1.590e+00,24.6,0.6
-1.587e+00,24.6,0.6
-1.584e+00,24.6,0.6
-1.581e+00,24.6,0.8
-1.578e+00,25.8,0.6
-1.574e+00,24.6,0.8
-1.571e+00,24.6,0.8
-1.568e+00,24.6,0.8
-1.565e+00,25,0.8
-1.562e+00,25,0.6
-1.558e+00,24.6,0.8
-1.555e+00,24.6,0.6
-1.552e+00,25.4,0.6
-1.549e+00,24.2,0.4
-1.546e+00,26.2,0.6
-1.542e+00,25,0.6
-1.539e+00,25,0.6
-1.536e+00,25.4,0.6
-1.533e+00,24.6,0.6
-1.530e+00,25.4,0.6
-1.526e+00,25.8,0.4
-1.523e+00,25.8,0.4
-1.520e+00,25.8,0.2
-1.517e+00,25.4,0.4
-1.514e+00,26.6,0.4
-1.510e+00,25.8,0.4
-1.507e+00,25.8,0.4
-1.504e+00,26.2,0.4
-1.501e+00,26.2,0.4
-1.498e+00,26.2,0.4
-1.494e+00,26.2,0.4
-1.491e+00,26.2,0.4
-1.488e+00,26.2,0.4
-1.485e+00,25.4,0.2
-1.482e+00,26.6,0.4
-1.478e+00,26.6,0.4
-1.475e+00,26.2,0.6
-1.472e+00,26.6,0.4
-1.469e+00,28.2,0.8
-1.466e+00,27.4,0.6
-1.462e+00,27,0.8
-1.459e+00,27,0.6
-1.456e+00,27,0.6
-1.453e+00,27.4,0.6
-1.450e+00,26.6,0.6
-1.446e+00,27,0.8
-1.443e+00,27.4,0.8
-1.440e+00,27,1
-1.437e+00,28.2,1
-1.434e+00,26.2,1
-1.430e+00,27.4,1
-1.427e+00,27,1.2
-1.424e+00,27.8,1.2
-1.421e+00,28.2,1.2
-1.418e+00,26.6,1.2
-1.414e+00,27.8,1.2
-1.411e+00,27.8,1.4
-1.408e+00,28.2,1.4
-1.405e+00,27.8,1.4
-1.402e+00,28.2,1.6
-1.398e+00,27.8,1.6
-1.395e+00,28.2,1.8
-1.392e+00,28.2,1.6
-1.389e+00,28.2,1.6
-1.386e+00,28.6,1.6
-1.382e+00,28.6,1.6
-1.379e+00,28.6,1.8
-1.376e+00,28.6,1.8
-1.373e+00,28.6,2
-1.370e+00,28.6,2
-1.366e+00,28.6,2
-1.363e+00,29.4,2.2
-1.360e+00,29,2.2
-1.357e+00,29,2.2
-1.354e+00,28.6,2.2
-1.350e+00,29,2.2
-1.347e+00,28.6,2.2
-1.344e+00,29,2.2
-1.341e+00,29,2.4
-1.338e+00,29.4,2.8
-1.334e+00,29.4,2.8
-1.331e+00,29,3
-1.328e+00,29.4,3
-1.325e+00,29.4,3.2
-1.322e+00,29.8,3.2
-1.318e+00,29.8,3.2
-1.315e+00,29.8,3.4
-1.312e+00,29.8,3.6
-1.309e+00,29.4,3.8
-1.306e+00,29.4,3.8
-1.302e+00,29.8,4
-1.299e+00,30.2,4.4
-1.296e+00,30.2,4.4
-1.293e+00,29.8,4.6
-1.290e+00,30.2,4.6
-1.286e+00,30.2,4.8
-1.283e+00,30.2,4.8
-1.280e+00,30.2,5
-1.277e+00,30.2,5.2
-1.274e+00,29.8,5.2
-1.270e+00,30.2,5.4
-1.267e+00,31,5.6
-1.264e+00,30.6,5.6
-1.261e+00,30.2,5.6
-1.258e+00,30.6,5.4
-1.254e+00,30.2,5.4
-1.251e+00,30.2,5.4
-1.248e+00,30.6,5.4
-1.245e+00,31,5.4
-1.242e+00,31,5.4
-1.238e+00,31,5.4
-1.235e+00,31.4,5.4
-1.232e+00,31,5.4
-1.229e+00,31.4,5.4
-1.226e+00,31.4,5.2
-1.222e+00,31.4,5.2
-1.219e+00,30.6,5
-1.216e+00,31.4,4.8
-1.213e+00,31.4,4.8
-1.210e+00,31.8,4.8
-1.206e+00,31.8,4.6
-1.203e+00,32.6,4.8
-1.200e+00,31.8,4.6
-1.197e+00,31.4,4.6
-1.194e+00,32.2,4.4
-1.190e+00,31.8,4.2
-1.187e+00,32.2,4
-1.184e+00,31.8,4
-1.181e+00,31.8,3.8
-1.178e+00,31.8,3.6
-1.174e+00,32.2,3.6
-1.171e+00,33.4,3.6
-1.168e+00,32.6,3.6
-1.165e+00,32.2,3.4
-1.162e+00,32.2,3.4
-1.158e+00,32.6,3
-1.155e+00,33,3
-1.152e+00,32.6,2.8
-1.149e+00,33,2.8
-1.146e+00,32.6,2.6
-1.142e+00,33,2.8
-1.139e+00,31.8,2.8
-1.136e+00,33,2.6
-1.133e+00,33,2.6
-1.130e+00,33,2.6
-1.126e+00,33.4,2.6
-1.123e+00,33.4,2.6
-1.120e+00,33.4,2.2
-1.117e+00,33.8,2.2
-1.114e+00,33.4,2
-1.110e+00,33.4,2
-1.107e+00,34.6,2
-1.104e+00,33.8,2
-1.101e+00,33.8,2
-1.098e+00,33.8,2
-1.094e+00,33.8,2
-1.091e+00,33.8,1.8
-1.088e+00,34.2,1.6
-1.085e+00,34.2,1.6
-1.082e+00,34.2,1.6
-1.078e+00,34.2,1.4
-1.075e+00,35,1.6
-1.072e+00,34.2,1.4
-1.069e+00,34.2,1.4
-1.066e+00,34.2,1.6
-1.062e+00,34.6,1.4
-1.059e+00,34.2,1.4
-1.056e+00,34.2,1.4
-1.053e+00,34.6,1.4
-1.050e+00,34.2,1.2
-1.046e+00,34.6,1.2
-1.043e+00,35,1.2
-1.040e+00,34.2,1
-1.037e+00,35,1
-1.034e+00,35,1
-1.030e+00,35,1
-1.027e+00,35.4,1
-1.024e+00,35.4,1
-1.021e+00,35.4,0.8
-1.018e+00,35,1
-1.014e+00,35.4,0.8
-1.011e+00,35,0.6
-1.008e+00,35.4,0.6
-1.005e+00,35.4,0.8
-1.002e+00,35,0.8
-9.984e-01,35.8,1
-9.952e-01,36.2,1
-9.920e-01,36.2,0.8
-9.888e-01,35.8,0.8
-9.856e-01,36.2,0.8
-9.824e-01,35.8,0.8
-9.792e-01,35.8,0.4
-9.760e-01,36.2,0.8
-9.728e-01,36.6,0.8
-9.696e-01,36.2,0.8
-9.664e-01,36.2,0.8
-9.632e-01,36.2,0.8
-9.600e-01,36.6,0.8
-9.568e-01,36.6,0.8
-9.536e-01,36.6,0.6
-9.504e-01,36.6,0.6
-9.472e-01,36.6,0.6
-9.440e-01,37.4,0.6
-9.408e-01,36.6,0.6
-9.376e-01,37.8,0.6
-9.344e-01,37,0.8
-9.312e-01,37,0.8
-9.280e-01,37,0.8
-9.248e-01,37,0.8
-9.216e-01,36.6,0.8
-9.184e-01,37.8,0.8
-9.152e-01,37.4,0.8
-9.120e-01,37.4,0.8
-9.088e-01,37.4,0.8
-9.056e-01,37.8,0.8
-9.024e-01,37.4,1
-8.992e-01,37.8,1
-8.960e-01,37.4,1.2
-8.928e-01,37.8,1.2
-8.896e-01,38.2,1.2
-8.864e-01,37.8,1.2
-8.832e-01,37.8,1.2
-8.800e-01,38.2,1
-8.768e-01,38.2,1
-8.736e-01,38.2,1
-8.704e-01,38.6,1
-8.672e-01,38.6,1.2
-8.640e-01,38.2,1.2
-8.608e-01,38.6,1.2
-8.576e-01,39,1
-8.544e-01,38.2,1.2
-8.512e-01,38.6,1
-8.480e-01,38.6,1
-8.448e-01,38.6,1
-8.416e-01,37.8,1
-8.384e-01,39.4,1
-8.352e-01,39,1
-8.320e-01,38.6,1
-8.288e-01,39,1.2
-8.256e-01,39.8,1.2
-8.224e-01,39,1.2
-8.192e-01,39.4,1.2
-8.160e-01,39,1.2
-8.128e-01,39.4,1
-8.096e-01,38.6,1
-8.064e-01,39.8,1
-8.032e-01,39.4,1
-8.000e-01,39.4,1
-7.968e-01,39.8,1
-7.936e-01,40.2,1
-7.904e-01,39.8,1
-7.872e-01,39.8,1
-7.840e-01,39.8,1
-7.808e-01,39.8,0.8
-7.776e-01,39,0.8
-7.744e-01,40.6,0.8
-7.712e-01,40.2,0.8
-7.680e-01,39.8,0.8
-7.648e-01,40.2,0.8
-7.616e-01,41,0.8
-7.584e-01,40.2,0.8
-7.552e-01,40.6,0.8
-7.520e-01,40.2,0.8
-7.488e-01,40.6,0.6
-7.456e-01,40.2,0.6
-7.424e-01,40.6,0.6
-7.392e-01,40.6,0.6
-7.360e-01,40.6,0.8
-7.328e-01,41,0.8
-7.296e-01,42.2,0.8
-7.264e-01,41,1
-7.232e-01,41,0.8
-7.200e-01,41,0.8
-7.168e-01,41,0.8
-7.136e-01,41.4,0.8
-7.104e-01,41.4,0.8
-7.072e-01,41,0.6
-7.040e-01,41,0.8
-7.008e-01,41.4,0.8
-6.976e-01,40.6,0.8
-6.944e-01,41,1
-6.912e-01,41.8,1
-6.880e-01,42.2,1
-6.848e-01,41.8,1
-6.816e-01,41.8,1
-6.784e-01,42.2,0.8
-6.752e-01,42.2,0.8
-6.720e-01,42.2,0.8
-6.688e-01,42.2,0.8
-6.656e-01,42.2,0.8
-6.624e-01,42.6,1
-6.592e-01,42.2,1
-6.560e-01,42.6,1
-6.528e-01,42.6,1
-6.496e-01,41.4,0.8
-6.464e-01,42.2,0.8
-6.432e-01,42.6,0.8
-6.400e-01,43,0.6
-6.368e-01,42.6,0.6
-6.336e-01,42.6,0.6
-6.304e-01,42.6,0.8
-6.272e-01,43,0.8
-6.240e-01,42.6,0.8
-6.208e-01,43.4,0.8
-6.176e-01,43.4,0.8
-6.144e-01,43,0.6
-6.112e-01,43.4,0.6
-6.080e-01,43.8,0.4
-6.048e-01,43.4,0.4
-6.016e-01,43.8,0.4
-5.984e-01,43.4,0.6
-5.952e-01,43.8,0.6
-5.920e-01,43.8,0.6
-5.888e-01,43.8,0.6
-5.856e-01,43.8,0.6
-5.824e-01,44.2,0.6
-5.792e-01,43.8,0.6
-5.760e-01,44.2,0.6
-5.728e-01,44.2,0.6
-5.696e-01,45,0.6
-5.664e-01,44.6,0.6
-5.632e-01,44.2,0.6
-5.600e-01,43.8,0.6
-5.568e-01,44.2,0.6
-5.536e-01,44.6,0.8
-5.504e-01,44.2,0.6
-5.472e-01,44.6,0.6
-5.440e-01,45,0.6
-5.408e-01,44.6,0.6
-5.376e-01,44.6,0.6
-5.344e-01,45.8,0.6
-5.312e-01,44.6,0.8
-5.280e-01,44.6,0.6
-5.248e-01,45,0.8
-5.216e-01,45,0.8
-5.184e-01,45.4,0.8
-5.152e-01,45.4,0.6
-5.120e-01,45.4,0.6
-5.088e-01,45.4,0.4
-5.056e-01,45.4,0.6
-5.024e-01,45.4,0.4
-4.992e-01,45.8,0.6
-4.960e-01,46.6,0.6
-4.928e-01,45.8,0.6
-4.896e-01,45.8,0.8
-4.864e-01,45.8,0.8
-4.832e-01,45.8,0.6
-4.800e-01,47,0.4
-4.768e-01,45.8,0.4
-4.736e-01,46.2,0.4
-4.704e-01,45.8,0.4
-4.672e-01,46.2,0.4
-4.640e-01,47.4,0.6
-4.608e-01,47.4,0.6
-4.576e-01,46.2,0.6
-4.544e-01,46.2,0.6
-4.512e-01,46.6,0.6
-4.480e-01,47.8,0.6
-4.448e-01,46.6,0.4
-4.416e-01,46.6,0.4
-4.384e-01,46.6,0.4
-4.352e-01,46.6,0.2
-4.320e-01,46.6,0.4
-4.288e-01,46.6,0.4
-4.256e-01,47,0.4
-4.224e-01,46.6,0.6
-4.192e-01,47,0.6
-4.160e-01,45.8,0.4
-4.128e-01,47.8,0.4
-4.096e-01,47.4,0.4
-4.064e-01,47.4,0.4
-4.032e-01,47.4,0.4
-4.000e-01,47.4,0.4
-3.968e-01,47.8,0.4
-3.936e-01,47.8,0.6
-3.904e-01,47.4,0.6
-3.872e-01,47.8,0.6
-3.840e-01,48.2,0.8
-3.808e-01,47.4,0.8
-3.776e-01,47.8,0.6
-3.744e-01,47.8,0.6
-3.712e-01,47.8,0.8
-3.680e-01,47.8,0.6
-3.648e-01,48.2,0.6
-3.616e-01,48.2,0.8
-3.584e-01,48.2,1
-3.552e-01,48.2,1
-3.520e-01,47.8,1
-3.488e-01,48.2,1
-3.456e-01,48.2,1
-3.424e-01,48.6,1
-3.392e-01,48.6,0.8
-3.360e-01,48.6,0.8
-3.328e-01,49,0.8
-3.296e-01,48.6,0.8
-3.264e-01,49,0.8
-3.232e-01,49,1
-3.200e-01,48.6,0.8
-3.168e-01,49,0.8
-3.136e-01,49,0.8
-3.104e-01,49.4,0.6
-3.072e-01,49.4,0.6
-3.040e-01,49,0.6
-3.008e-01,49.4,0.6
-2.976e-01,49.4,0.6
-2.944e-01,49.8,0.8
-2.912e-01,49.8,0.8
-2.880e-01,49.4,0.8
-2.848e-01,49.8,0.8
-2.816e-01,49.4,0.8
-2.784e-01,50.2,0.8
-2.752e-01,49.8,0.6
-2.720e-01,49.8,0.6
-2.688e-01,49.8,0.6
-2.656e-01,50.2,0.6
-2.624e-01,49.8,0.6
-2.592e-01,51,0.6
-2.560e-01,50.2,0.8
-2.528e-01,50.6,0.8
-2.496e-01,50.2,0.8
-2.464e-01,51,0.8
-2.432e-01,50.2,0.6
-2.400e-01,50.6,0.8
-2.368e-01,50.6,0.6
-2.336e-01,50.6,0.8
-2.304e-01,50.6,0.8
-2.272e-01,51,0.8
-2.240e-01,50.6,0.8
-2.208e-01,51,1.2
-2.176e-01,51,1
-2.144e-01,51,1.2
-2.112e-01,51,1
-2.080e-01,50.6,1
-2.048e-01,50.6,1.2
-2.016e-01,51.4,1.2
-1.984e-01,50.6,1.4
-1.952e-01,51.4,1.4
-1.920e-01,51.4,1.4
-1.888e-01,51.4,1.6
-1.856e-01,51,1.8
-1.824e-01,52.2,1.8
-1.792e-01,51.4,1.8
-1.760e-01,51.4,1.8
-1.728e-01,52.6,1.8
-1.696e-01,51.4,1.8
-1.664e-01,51.8,2
-1.632e-01,52.2,2
-1.600e-01,51.8,2
-1.568e-01,52.6,2.2
-1.536e-01,51.8,2.2
-1.504e-01,52.2,2.4
-1.472e-01,52.2,2.4
-1.440e-01,53.4,2.4
-1.408e-01,52.2,2.6
-1.376e-01,52.6,2.6
-1.344e-01,52.6,2.6
-1.312e-01,52.6,2.8
-1.280e-01,53.8,3
-1.248e-01,53,3.2
-1.216e-01,53,3.4
-1.184e-01,53.4,3.6
-1.152e-01,53,3.6
-1.120e-01,52.6,4
-1.088e-01,53,4
-1.056e-01,53.4,4.2
-1.024e-01,53.8,4.4
-9.920e-02,53,4.6
-9.600e-02,53,5
-9.280e-02,54.2,5.2
-8.960e-02,53,5.6
-8.640e-02,53,5.8
-8.320e-02,53.4,6.2
-8.000e-02,53.8,6.4
-7.680e-02,53,7
-7.360e-02,53.8,7.2
-7.040e-02,54.2,7.4
-6.720e-02,53.8,7.8
-6.400e-02,53.8,8
-6.080e-02,53.8,8.4
-5.760e-02,54.2,8.8
-5.440e-02,54.6,9.2
-5.120e-02,54.2,9.6
-4.800e-02,54.2,9.6
-4.480e-02,53.8,10
-4.160e-02,54.6,10.2
-3.840e-02,54.2,10.2
-3.520e-02,54.6,10.4
-3.200e-02,54.6,10.6
-2.880e-02,54.6,10.8
-2.560e-02,54.6,11.2
-2.240e-02,55,11.2
-1.920e-02,53.4,11.6
-1.600e-02,55,11.8
-1.280e-02,55,11.8
-9.600e-03,55.4,12
-6.400e-03,56.2,12.2
-3.200e-03,55,12.4
5.850e-14,55,12.6
3.200e-03,55,12.8
6.400e-03,55.4,13
9.600e-03,54.2,13.4
1.280e-02,55,13.8
1.600e-02,55.4,14
1.920e-02,55.8,14.4
2.240e-02,55.4,14.8
2.560e-02,55,15
2.880e-02,55.8,15.2
3.200e-02,55.8,15.6
3.520e-02,55.8,15.8
3.840e-02,56.2,16.2
4.160e-02,54.6,16.6
4.480e-02,55.8,17
4.800e-02,55.8,17.6
5.120e-02,56.6,18
5.440e-02,56.6,18.2
5.760e-02,56.6,18.4
6.080e-02,56.2,18.6
6.400e-02,56.6,18.8
6.720e-02,56.6,19
7.040e-02,57,19.2
7.360e-02,56.6,19.2
