Massenspektrometer/Data/Raumluft(1-50).CSV

Model,TBS2102B
Firmware Version,v1.32.139

Point Format,Y,
Horizontal Units,S,
Horizontal Scale,0.4,
Sample Interval,0.0032,
Filter Frequency,2e+08,
Record Length,2000,
Gating,0.0% to 100.0%,0.0% to 100.0%
Probe Attenuation,10,10
Vertical Units,V,V
Vertical Offset,0,0
Vertical Scale,10,10
Label,,
TIME,CH1,CH2
-3.200e+00,88,0.8
-3.197e+00,88.4,0.8
-3.194e+00,88.4,0.8
-3.190e+00,88.4,0.8
-3.187e+00,88.4,0.8
-3.184e+00,88.8,0.8
-3.181e+00,88.8,0.8
-3.178e+00,88.8,1.2
-3.174e+00,88.8,0.8
-3.171e+00,88.8,0.8
-3.168e+00,89.2,1.2
-3.165e+00,88.8,0.8
-3.162e+00,89.2,0.8
-3.158e+00,89.2,0.8
-3.155e+00,89.2,0.8
-3.152e+00,89.2,0.8
-3.149e+00,89.2,0.8
-3.146e+00,89.2,0.8
-3.142e+00,89.2,0.8
-3.139e+00,89.6,0.8
-3.136e+00,89.2,0.8
-3.133e+00,89.6,1.2
-3.130e+00,89.6,0.8
-3.126e+00,89.6,0.8
-3.123e+00,89.6,0.8
-3.120e+00,89.6,0.8
-3.117e+00,89.6,0.8
-3.114e+00,89.6,0.8
-3.110e+00,90,0.8
-3.107e+00,90,0.8
-3.104e+00,90,0.8
-3.101e+00,90,0.8
-3.098e+00,90,1.2
-3.094e+00,90.4,0.8
-3.091e+00,90.4,0.8
-3.088e+00,90.8,0.8
-3.085e+00,90.4,0.8
-3.082e+00,90.8,0.8
-3.078e+00,90.4,0.4
-3.075e+00,90.8,0.4
-3.072e+00,90.8,0.8
-3.069e+00,91.2,0.8
-3.066e+00,91.2,0.8
-3.062e+00,91.2,0.8
-3.059e+00,91.6,0.4
-3.056e+00,90.8,0.4
-3.053e+00,91.6,0.4
-3.050e+00,91.2,0.4
-3.046e+00,91.2,0.4
-3.043e+00,91.2,0.4
-3.040e+00,91.2,0.8
-3.037e+00,91.2,0.8
-3.034e+00,91.6,0.8
-3.030e+00,91.6,0.8
-3.027e+00,91.2,0.8
-3.024e+00,91.2,0.8
-3.021e+00,91.6,0.4
-3.018e+00,91.6,0.8
-3.014e+00,91.6,0.8
-3.011e+00,91.6,0.4
-3.008e+00,92,0.8
-3.005e+00,92,0.8
-3.002e+00,92,0.8
-2.998e+00,92,0.8
-2.995e+00,92,0.4
-2.992e+00,92,0.4
-2.989e+00,92.4,0.8
-2.986e+00,92.4,0.4
-2.982e+00,92.8,0.8
-2.979e+00,92.8,0.8
-2.976e+00,92.8,0.8
-2.973e+00,92.8,0.4
-2.970e+00,92.8,0.8
-2.966e+00,92.8,0.8
-2.963e+00,92.8,1.2
-2.960e+00,93.2,0.8
-2.957e+00,92.8,0.8
-2.954e+00,93.2,0.8
-2.950e+00,93.2,0.8
-2.947e+00,92.8,0.4
-2.944e+00,92.8,0.8
-2.941e+00,93.2,0.4
-2.938e+00,93.2,0.8
-2.934e+00,93.2,0.8
-2.931e+00,93.6,0.8
-2.928e+00,93.6,0.8
-2.925e+00,93.2,0.8
-2.922e+00,94,0.8
-2.918e+00,93.6,0.8
-2.915e+00,93.6,0.8
-2.912e+00,94,0.4
-2.909e+00,94,0.8
-2.906e+00,94.4,0.8
-2.902e+00,94,0.8
-2.899e+00,94,0.8
-2.896e+00,94.4,0.8
-2.893e+00,94.4,0.4
-2.890e+00,94.4,0.8
-2.886e+00,94.4,0.8
-2.883e+00,94.4,0.4
-2.880e+00,94.8,0.4
-2.877e+00,94.8,0.4
-2.874e+00,94.8,0.4
-2.870e+00,94.8,0.8
-2.867e+00,94.8,0.8
-2.864e+00,94.8,0.8
-2.861e+00,94.8,0.8
-2.858e+00,94.8,0.4
-2.854e+00,94.8,0.8
-2.851e+00,94.8,0.8
-2.848e+00,94.8,0.8
-2.845e+00,95.2,0.4
-2.842e+00,95.2,0.8
-2.838e+00,95.2,0.8
-2.835e+00,95.6,0.8
-2.832e+00,95.2,0.8
-2.829e+00,95.2,0.8
-2.826e+00,95.6,1.2
-2.822e+00,95.6,0.8
-2.819e+00,96,0.8
-2.816e+00,96,0.8
-2.813e+00,96,0.4
-2.810e+00,96,0.8
-2.806e+00,96,0.8
-2.803e+00,96.4,0.8
-2.800e+00,96.4,0.8
-2.797e+00,96.4,0.8
-2.794e+00,96.8,0.8
-2.790e+00,96.4,0.8
-2.787e+00,96.4,0.8
-2.784e+00,96.4,0.8
-2.781e+00,96,0.4
-2.778e+00,96.8,0.8
-2.774e+00,96.8,0.8
-2.771e+00,96.8,0.8
-2.768e+00,97.2,0.8
-2.765e+00,96.4,0.8
-2.762e+00,96.8,0.8
-2.758e+00,96.8,0.8
-2.755e+00,97.2,0.8
-2.752e+00,96.8,0.8
-2.749e+00,96.8,0.8
-2.746e+00,96.8,0.4
-2.742e+00,96.8,0.4
-2.739e+00,97.2,0.4
-2.736e+00,97.2,0.8
-2.733e+00,97.6,0.8
-2.730e+00,97.2,0.8
-2.726e+00,97.6,1.2
-2.723e+00,97.6,0.8
-2.720e+00,98,0.8
-2.717e+00,98,0.8
-2.714e+00,98,0.8
-2.710e+00,98,0.8
-2.707e+00,98,0.8
-2.704e+00,98,0.8
-2.701e+00,98.4,0.8
-2.698e+00,98,1.2
-2.694e+00,98.4,1.2
-2.691e+00,98.4,1.2
-2.688e+00,98.4,0.8
-2.685e+00,98.4,0.8
-2.682e+00,98.4,0.8
-2.678e+00,98.4,0.8
-2.675e+00,98.4,0.8
-2.672e+00,98.4,1.2
-2.669e+00,98.8,1.2
-2.666e+00,98.4,1.2
-2.662e+00,98.4,1.2
-2.659e+00,98.8,1.2
-2.656e+00,99.2,1.2
-2.653e+00,98.8,1.2
-2.650e+00,98.8,0.8
-2.646e+00,99.2,1.2
-2.643e+00,98.8,0.8
-2.640e+00,99.2,0.8
-2.637e+00,99.2,1.2
-2.634e+00,99.6,1.2
-2.630e+00,98.8,1.2
-2.627e+00,99.2,1.2
-2.624e+00,99.6,1.2
-2.621e+00,99.6,1.2
-2.618e+00,100,1.2
-2.614e+00,100.4,1.2
-2.611e+00,99.6,1.2
-2.608e+00,100,0.8
-2.605e+00,100.4,1.2
-2.602e+00,100,1.2
-2.598e+00,100.4,1.2
-2.595e+00,100.4,1.6
-2.592e+00,100.4,1.2
-2.589e+00,100,1.2
-2.586e+00,100.4,1.2
-2.582e+00,100,0.8
-2.579e+00,100.4,0.8
-2.576e+00,100.4,0.8
-2.573e+00,100.4,0.8
-2.570e+00,75.6,-18.8
-2.566e+00,40,-18.8
-2.563e+00,3.6,-18.8
-2.560e+00,0,0.8
-2.557e+00,0,0.8
-2.554e+00,0,0.4
-2.550e+00,0.8,0.4
-2.547e+00,0.8,0.4
-2.544e+00,0.4,0.4
-2.541e+00,0.4,0.4
-2.538e+00,0.8,0.4
-2.534e+00,0.4,0.4
-2.531e+00,0.8,0.4
-2.528e+00,0.8,0.4
-2.525e+00,0.8,0.4
-2.522e+00,1.2,0.4
-2.518e+00,0.8,0.4
-2.515e+00,1.2,4.76837e-07
-2.512e+00,1.2,4.76837e-07
-2.509e+00,1.2,4.76837e-07
-2.506e+00,1.2,0.4
-2.502e+00,1.2,0.4
-2.499e+00,1.2,0.4
-2.496e+00,1.2,0.4
-2.493e+00,1.6,0.4
-2.490e+00,1.6,0.4
-2.486e+00,1.6,0.4
-2.483e+00,2,0.4
-2.480e+00,2,0.4
-2.477e+00,2,0.4
-2.474e+00,2,0.4
-2.470e+00,2,0.4
-2.467e+00,2,0.4
-2.464e+00,2,0.8
-2.461e+00,2,0.8
-2.458e+00,2.4,0.8
-2.454e+00,2.4,0.8
-2.451e+00,2.4,0.8
-2.448e+00,2.8,0.4
-2.445e+00,2.4,0.4
-2.442e+00,2.8,0.8
-2.438e+00,3.2,0.8
-2.435e+00,2.4,0.4
-2.432e+00,2.4,0.8
-2.429e+00,3.2,0.8
-2.426e+00,2.8,0.8
-2.422e+00,3.6,0.8
-2.419e+00,3.2,0.8
-2.416e+00,3.2,0.8
-2.413e+00,3.2,0.8
-2.410e+00,3.2,0.4
-2.406e+00,3.6,0.4
-2.403e+00,3.2,0.4
-2.400e+00,3.6,0.8
-2.397e+00,3.6,0.8
-2.394e+00,3.6,0.8
-2.390e+00,3.6,0.8
-2.387e+00,3.6,0.8
-2.384e+00,3.6,0.8
-2.381e+00,4,0.8
-2.378e+00,4,0.8
-2.374e+00,4,0.8
-2.371e+00,4,0.8
-2.368e+00,4.4,0.8
-2.365e+00,4,0.8
-2.362e+00,4.4,1.2
-2.358e+00,4,0.8
-2.355e+00,4.4,0.8
-2.352e+00,4.4,0.8
-2.349e+00,4.4,0.8
-2.346e+00,4.4,0.4
-2.342e+00,4.4,0.8
-2.339e+00,4.8,0.8
-2.336e+00,4.8,0.8
-2.333e+00,5.2,0.8
-2.330e+00,5.2,0.8
-2.326e+00,4.8,0.8
-2.323e+00,5.2,0.8
-2.320e+00,5.2,0.8
-2.317e+00,5.2,0.8
-2.314e+00,5.2,0.8
-2.310e+00,5.6,0.8
-2.307e+00,5.2,0.8
-2.304e+00,5.2,0.4
-2.301e+00,5.2,0.8
-2.298e+00,5.6,0.8
-2.294e+00,5.6,0.8
-2.291e+00,6,1.2
-2.288e+00,6,1.2
-2.285e+00,5.6,0.8
-2.282e+00,6,0.8
-2.278e+00,6,0.8
-2.275e+00,6,0.8
-2.272e+00,6.4,0.8
-2.269e+00,6,0.4
-2.266e+00,6,0.8
-2.262e+00,6,0.8
-2.259e+00,6.4,1.2
-2.256e+00,6,0.8
-2.253e+00,6.4,1.2
-2.250e+00,6.4,0.8
-2.246e+00,6.8,0.8
-2.243e+00,6.8,0.8
-2.240e+00,7.2,0.8
-2.237e+00,7.2,0.8
-2.234e+00,7.2,0.8
-2.230e+00,6.8,0.8
-2.227e+00,6.8,0.8
-2.224e+00,7.2,1.2
-2.221e+00,6.4,0.8
-2.218e+00,7.2,0.8
-2.214e+00,6.8,0.8
-2.211e+00,7.6,0.8
-2.208e+00,7.6,0.8
-2.205e+00,7.2,0.8
-2.202e+00,7.6,0.8
-2.198e+00,7.6,0.8
-2.195e+00,7.6,1.2
-2.192e+00,7.6,1.2
-2.189e+00,8,1.2
-2.186e+00,7.6,0.8
-2.182e+00,7.6,1.2
-2.179e+00,8,1.2
-2.176e+00,8,0.8
-2.173e+00,8,0.8
-2.170e+00,8,0.8
-2.166e+00,8,0.8
-2.163e+00,8.4,0.8
-2.160e+00,8,0.8
-2.157e+00,8.4,1.2
-2.154e+00,8.4,0.8
-2.150e+00,8.4,0.8
-2.147e+00,8.4,0.8
-2.144e+00,8.4,0.8
-2.141e+00,8.8,0.8
-2.138e+00,8.8,0.8
-2.134e+00,8.8,0.8
-2.131e+00,8.8,1.2
-2.128e+00,9.2,0.8
-2.125e+00,9.2,1.2
-2.122e+00,8.8,0.8
-2.118e+00,9.2,1.2
-2.115e+00,9.2,1.2
-2.112e+00,9.2,0.8
-2.109e+00,9.2,0.8
-2.106e+00,9.2,0.8
-2.102e+00,9.2,0.8
-2.099e+00,9.6,1.2
-2.096e+00,9.6,1.2
-2.093e+00,9.6,1.2
-2.090e+00,9.2,1.2
-2.086e+00,10,1.2
-2.083e+00,9.6,1.2
-2.080e+00,9.6,0.8
-2.077e+00,10,1.2
-2.074e+00,10,0.8
-2.070e+00,10,1.2
-2.067e+00,10,0.8
-2.064e+00,10,0.8
-2.061e+00,10.4,1.2
-2.058e+00,10.4,1.2
-2.054e+00,10.4,1.2
-2.051e+00,10.4,1.2
-2.048e+00,10,1.2
-2.045e+00,10.4,0.8
-2.042e+00,10.4,0.8
-2.038e+00,10.8,0.8
-2.035e+00,10.8,0.8
-2.032e+00,10.8,0.8
-2.029e+00,10.8,0.8
-2.026e+00,10.8,0.8
-2.022e+00,11.2,0.8
-2.019e+00,11.2,0.8
-2.016e+00,10.8,0.4
-2.013e+00,11.2,0.8
-2.010e+00,11.2,0.8
-2.006e+00,11.2,0.4
-2.003e+00,11.2,0.4
-2.000e+00,11.2,0.8
-1.997e+00,11.6,0.4
-1.994e+00,11.6,0.4
-1.990e+00,12,0.8
-1.987e+00,11.6,0.8
-1.984e+00,11.6,0.8
-1.981e+00,11.6,0.8
-1.978e+00,11.6,0.8
-1.974e+00,12,0.4
-1.971e+00,12,0.4
-1.968e+00,11.6,0.8
-1.965e+00,12,0.4
-1.962e+00,12.4,0.8
-1.958e+00,12,0.4
-1.955e+00,12.4,0.8
-1.952e+00,12,0.8
-1.949e+00,12.4,0.8
-1.946e+00,12.8,0.8
-1.942e+00,12.4,0.8
-1.939e+00,12.4,0.8
-1.936e+00,12.8,0.4
-1.933e+00,12.8,0.8
-1.930e+00,12.8,0.8
-1.926e+00,12.8,0.8
-1.923e+00,12.8,0.8
-1.920e+00,12.8,0.8
-1.917e+00,13.2,1.2
-1.914e+00,13.2,0.8
-1.910e+00,13.2,0.8
-1.907e+00,12.8,0.8
-1.904e+00,13.2,0.4
-1.901e+00,13.6,0.8
-1.898e+00,13.6,0.4
-1.894e+00,13.6,0.4
-1.891e+00,13.6,0.8
-1.888e+00,13.6,0.8
-1.885e+00,14,0.8
-1.882e+00,13.6,0.4
-1.878e+00,13.6,0.8
-1.875e+00,14,0.8
-1.872e+00,14,0.4
-1.869e+00,14,0.4
-1.866e+00,13.6,0.4
-1.862e+00,14.4,0.4
-1.859e+00,14,0.4
-1.856e+00,14.4,0.4
-1.853e+00,14.4,0.4
-1.850e+00,14.8,0.4
-1.846e+00,14.4,0.4
-1.843e+00,14.4,0.4
-1.840e+00,14.8,4.76837e-07
-1.837e+00,14.8,0.4
-1.834e+00,14,0.4
-1.830e+00,14.8,0.4
-1.827e+00,14.4,0.4
-1.824e+00,14.8,0.4
-1.821e+00,15.2,0.4
-1.818e+00,15.6,0.4
-1.814e+00,15.2,0.4
-1.811e+00,15.2,0.4
-1.808e+00,15.2,0.8
-1.805e+00,15.2,0.4
-1.802e+00,15.6,0.4
-1.798e+00,15.2,0.4
-1.795e+00,15.2,0.4
-1.792e+00,15.2,0.4
-1.789e+00,15.2,0.4
-1.786e+00,15.6,0.8
-1.782e+00,15.6,0.8
-1.779e+00,15.6,0.8
-1.776e+00,15.6,0.8
-1.773e+00,16,0.8
-1.770e+00,16.4,0.8
-1.766e+00,16,0.8
-1.763e+00,16,0.8
-1.760e+00,16,0.8
-1.757e+00,16,0.8
-1.754e+00,15.6,0.8
-1.750e+00,16.4,0.8
-1.747e+00,16,0.8
-1.744e+00,16.4,0.8
-1.741e+00,16.4,0.8
-1.738e+00,16.4,0.8
-1.734e+00,16,0.4
-1.731e+00,16.8,0.4
-1.728e+00,16.8,0.4
-1.725e+00,16.8,0.4
-1.722e+00,16.8,0.8
-1.718e+00,16.8,0.4
-1.715e+00,16.8,0.8
-1.712e+00,17.2,0.8
-1.709e+00,17.2,0.8
-1.706e+00,17.2,0.4
-1.702e+00,16.8,0.8
-1.699e+00,17.2,0.8
-1.696e+00,17.2,0.8
-1.693e+00,17.6,0.8
-1.690e+00,17.2,0.8
-1.686e+00,17.6,0.8
-1.683e+00,17.6,0.8
-1.680e+00,17.6,0.4
-1.677e+00,17.6,0.4
-1.674e+00,17.6,0.4
-1.670e+00,18,0.8
-1.667e+00,18,0.8
-1.664e+00,18,0.8
-1.661e+00,18,0.4
-1.658e+00,18.4,0.4
-1.654e+00,18,0.4
-1.651e+00,18.4,0.8
-1.648e+00,18.4,0.8
-1.645e+00,18.4,0.8
-1.642e+00,18.4,0.4
-1.638e+00,18.4,0.4
-1.635e+00,18.8,0.8
-1.632e+00,18.8,0.4
-1.629e+00,18.8,0.4
-1.626e+00,18.8,0.4
-1.622e+00,18.8,0.8
-1.619e+00,18.8,0.4
-1.616e+00,18.8,0.4
-1.613e+00,18.8,0.4
-1.610e+00,18.8,0.4
-1.606e+00,19.2,0.4
-1.603e+00,19.2,0.4
-1.600e+00,18.8,0.4
-1.597e+00,19.2,0.4
-1.594e+00,19.2,0.4
-1.590e+00,19.6,0.4
-1.587e+00,19.6,0.4
-1.584e+00,19.6,0.4
-1.581e+00,19.2,0.4
-1.578e+00,19.6,0.8
-1.574e+00,19.6,0.4
-1.571e+00,19.2,0.4
-1.568e+00,19.6,0.4
-1.565e+00,19.6,0.4
-1.562e+00,20,0.4
-1.558e+00,20,0.4
-1.555e+00,20,0.4
-1.552e+00,20.4,0.4
-1.549e+00,20,0.4
-1.546e+00,20.4,0.4
-1.542e+00,20,0.4
-1.539e+00,20.4,0.8
-1.536e+00,20.4,0.8
-1.533e+00,20.8,0.4
-1.530e+00,20.8,0.4
-1.526e+00,20.8,0.4
-1.523e+00,20.8,0.8
-1.520e+00,20.8,0.4
-1.517e+00,20.8,0.4
-1.514e+00,20.8,0.8
-1.510e+00,20.8,0.8
-1.507e+00,21.2,0.4
-1.504e+00,21.2,0.4
-1.501e+00,21.2,0.4
-1.498e+00,21.2,0.4
-1.494e+00,21.2,0.4
-1.491e+00,21.2,0.8
-1.488e+00,21.6,0.8
-1.485e+00,21.6,0.4
-1.482e+00,21.6,0.4
-1.478e+00,21.2,0.4
-1.475e+00,21.6,0.4
-1.472e+00,21.6,0.4
-1.469e+00,21.6,0.4
-1.466e+00,21.6,0.4
-1.462e+00,22,0.4
-1.459e+00,22,0.4
-1.456e+00,22,0.4
-1.453e+00,22,0.4
-1.450e+00,22,0.4
-1.446e+00,22,0.4
-1.443e+00,22,0.8
-1.440e+00,22.4,0.8
-1.437e+00,22.8,0.4
-1.434e+00,22.8,0.4
-1.430e+00,22.4,0.4
-1.427e+00,22.4,0.4
-1.424e+00,22.8,0.4
-1.421e+00,22.8,0.8
-1.418e+00,22.8,0.4
-1.414e+00,22.4,0.4
-1.411e+00,22.8,0.4
-1.408e+00,22.8,0.4
-1.405e+00,23.2,0.4
-1.402e+00,23.2,0.4
-1.398e+00,22.8,0.4
-1.395e+00,23.2,0.4
-1.392e+00,22.8,0.4
-1.389e+00,23.2,0.4
-1.386e+00,23.2,0.8
-1.382e+00,23.2,0.4
-1.379e+00,23.6,0.4
-1.376e+00,23.6,0.8
-1.373e+00,23.6,0.8
-1.370e+00,23.6,0.4
-1.366e+00,23.6,0.4
-1.363e+00,23.6,0.8
-1.360e+00,24,0.4
-1.357e+00,24,0.4
-1.354e+00,24,0.4
-1.350e+00,24.4,0.4
-1.347e+00,24.4,0.4
-1.344e+00,24,0.4
-1.341e+00,24.4,0.4
-1.338e+00,24.4,0.4
-1.334e+00,24.4,0.8
-1.331e+00,24.4,0.8
-1.328e+00,24.4,0.4
-1.325e+00,24.8,0.4
-1.322e+00,24.8,0.8
-1.318e+00,24.8,0.8
-1.315e+00,24.8,0.8
-1.312e+00,24.4,0.4
-1.309e+00,24.8,0.4
-1.306e+00,24.8,0.4
-1.302e+00,24.8,0.4
-1.299e+00,25.2,0.8
-1.296e+00,25.2,0.4
-1.293e+00,25.2,0.4
-1.290e+00,25.2,0.4
-1.286e+00,25.2,0.4
-1.283e+00,25.2,0.4
-1.280e+00,25.6,0.4
-1.277e+00,25.6,0.4
-1.274e+00,25.6,0.8
-1.270e+00,25.6,0.4
-1.267e+00,25.6,0.8
-1.264e+00,26,0.4
-1.261e+00,25.6,0.4
-1.258e+00,25.6,0.4
-1.254e+00,26,0.4
-1.251e+00,26,0.4
-1.248e+00,26,0.8
-1.245e+00,26,0.8
-1.242e+00,26.4,0.8
-1.238e+00,26,0.4
-1.235e+00,26.4,0.4
-1.232e+00,26.4,0.4
-1.229e+00,26.4,0.4
-1.226e+00,26.4,0.4
-1.222e+00,26.8,0.4
-1.219e+00,26.8,0.8
-1.216e+00,26.8,0.4
-1.213e+00,27.2,0.8
-1.210e+00,26.8,0.4
-1.206e+00,26.8,0.4
-1.203e+00,26.8,0.4
-1.200e+00,26.8,0.8
-1.197e+00,27.2,0.4
-1.194e+00,27.2,0.4
-1.190e+00,27.2,0.4
-1.187e+00,26.8,0.4
-1.184e+00,27.2,0.8
-1.181e+00,27.2,0.8
-1.178e+00,27.2,0.4
-1.174e+00,27.2,0.4
-1.171e+00,27.6,0.8
-1.168e+00,27.6,0.4
-1.165e+00,27.6,0.4
-1.162e+00,28,0.8
-1.158e+00,28,0.8
-1.155e+00,27.6,0.8
-1.152e+00,28,0.4
-1.149e+00,27.6,0.8
-1.146e+00,28,0.4
-1.142e+00,28,0.8
-1.139e+00,27.6,0.4
-1.136e+00,28.4,0.8
-1.133e+00,28.4,0.8
-1.130e+00,28,0.8
-1.126e+00,28.4,0.4
-1.123e+00,28.4,0.8
-1.120e+00,28.4,0.4
-1.117e+00,28.8,0.4
-1.114e+00,28.8,0.4
-1.110e+00,29.2,0.8
-1.107e+00,28.8,0.8
-1.104e+00,28.8,0.8
-1.101e+00,28.8,0.8
-1.098e+00,28.8,0.8
-1.094e+00,29.2,0.8
-1.091e+00,29.6,0.8
-1.088e+00,29.2,0.8
-1.085e+00,29.6,0.8
-1.082e+00,29.6,0.8
-1.078e+00,29.2,0.8
-1.075e+00,29.6,0.8
-1.072e+00,29.6,0.4
-1.069e+00,29.6,0.8
-1.066e+00,29.6,0.8
-1.062e+00,30,0.8
-1.059e+00,30,0.8
-1.056e+00,30,0.4
-1.053e+00,30,0.4
-1.050e+00,30,0.8
-1.046e+00,29.6,0.8
-1.043e+00,30.4,0.8
-1.040e+00,29.6,0.8
-1.037e+00,30,0.8
-1.034e+00,30,0.8
-1.030e+00,30,0.8
-1.027e+00,30.4,0.8
-1.024e+00,30.4,0.8
-1.021e+00,30.4,0.8
-1.018e+00,30.4,0.4
-1.014e+00,30.8,0.4
-1.011e+00,30.8,0.4
-1.008e+00,30.8,0.4
-1.005e+00,30.8,0.8
-1.002e+00,30.8,0.8
-9.984e-01,30.8,0.4
-9.952e-01,30.8,0.8
-9.920e-01,31.2,0.4
-9.888e-01,31.2,0.4
-9.856e-01,30.8,0.8
-9.824e-01,31.2,0.4
-9.792e-01,31.2,0.8
-9.760e-01,31.2,0.8
-9.728e-01,31.2,0.8
-9.696e-01,31.6,0.8
-9.664e-01,31.2,0.8
-9.632e-01,31.6,0.4
-9.600e-01,31.6,0.4
-9.568e-01,31.6,0.4
-9.536e-01,32,0.8
-9.504e-01,31.6,0.4
-9.472e-01,31.6,0.8
-9.440e-01,32,0.4
-9.408e-01,32,0.8
-9.376e-01,32,0.8
-9.344e-01,32.4,0.4
-9.312e-01,32,0.8
-9.280e-01,32,0.8
-9.248e-01,32,0.4
-9.216e-01,32,0.4
-9.184e-01,32.4,0.8
-9.152e-01,32.4,0.8
-9.120e-01,32.4,0.8
-9.088e-01,32.8,0.8
-9.056e-01,32.4,0.8
-9.024e-01,32.8,0.8
-8.992e-01,32.8,0.8
-8.960e-01,32.8,0.8
-8.928e-01,32.4,0.4
-8.896e-01,32.8,0.8
-8.864e-01,32.8,0.8
-8.832e-01,32.8,0.4
-8.800e-01,33.2,0.8
-8.768e-01,33.2,0.8
-8.736e-01,33.2,0.8
-8.704e-01,33.2,0.8
-8.672e-01,33.6,0.8
-8.640e-01,33.6,0.8
-8.608e-01,33.2,0.8
-8.576e-01,33.2,0.4
-8.544e-01,33.6,0.4
-8.512e-01,33.6,0.4
-8.480e-01,33.6,0.8
-8.448e-01,33.6,0.8
-8.416e-01,34,0.8
-8.384e-01,34,0.8
-8.352e-01,34,0.8
-8.320e-01,34,0.8
-8.288e-01,34.4,0.4
-8.256e-01,34,0.4
-8.224e-01,34,0.8
-8.192e-01,34.4,0.8
-8.160e-01,34.4,0.8
-8.128e-01,34.4,0.8
-8.096e-01,34.4,0.8
-8.064e-01,34.4,0.8
-8.032e-01,34.4,0.8
-8.000e-01,34.8,0.4
-7.968e-01,34.4,0.8
-7.936e-01,34.8,0.4
-7.904e-01,34.8,0.8
-7.872e-01,34.8,0.8
-7.840e-01,35.2,0.4
-7.808e-01,35.2,0.4
-7.776e-01,35.2,0.4
-7.744e-01,35.2,0.4
-7.712e-01,35.2,0.8
-7.680e-01,35.2,0.8
-7.648e-01,35.2,0.4
-7.616e-01,35.2,0.4
-7.584e-01,35.6,0.8
-7.552e-01,35.6,0.8
-7.520e-01,35.6,0.4
-7.488e-01,35.6,0.4
-7.456e-01,35.6,0.4
-7.424e-01,35.6,0.4
-7.392e-01,35.6,0.4
-7.360e-01,35.6,0.8
-7.328e-01,35.6,0.8
-7.296e-01,36,0.4
-7.264e-01,36,0.8
-7.232e-01,36,0.8
-7.200e-01,36,0.8
-7.168e-01,36.4,0.4
-7.136e-01,36.4,0.4
-7.104e-01,36.4,0.8
-7.072e-01,36.4,0.8
-7.040e-01,36.4,0.8
-7.008e-01,36.4,0.8
-6.976e-01,36.8,0.4
-6.944e-01,36.8,0.4
-6.912e-01,36.8,0.4
-6.880e-01,36.8,0.4
-6.848e-01,36.8,0.8
-6.816e-01,36.8,0.8
-6.784e-01,37.2,0.8
-6.752e-01,36.8,0.4
-6.720e-01,36.8,0.4
-6.688e-01,37.2,0.4
-6.656e-01,37.2,0.4
-6.624e-01,37.2,0.4
-6.592e-01,37.6,0.4
-6.560e-01,37.6,0.4
-6.528e-01,37.6,0.8
-6.496e-01,38,0.4
-6.464e-01,37.6,0.8
-6.432e-01,37.6,0.4
-6.400e-01,38,0.8
-6.368e-01,37.6,0.8
-6.336e-01,37.6,0.4
-6.304e-01,38,0.4
-6.272e-01,38,0.4
-6.240e-01,38,0.4
-6.208e-01,38,0.8
-6.176e-01,38.4,0.4
-6.144e-01,38.4,0.4
-6.112e-01,38.4,0.4
-6.080e-01,38.4,0.4
-6.048e-01,38.8,0.4
-6.016e-01,38.4,0.4
-5.984e-01,38.8,0.4
-5.952e-01,38.8,0.4
-5.920e-01,38.4,0.4
-5.888e-01,38.8,0.8
-5.856e-01,38.8,0.4
-5.824e-01,39.2,0.8
-5.792e-01,38.8,0.4
-5.760e-01,38.8,0.4
-5.728e-01,38.8,0.4
-5.696e-01,39.2,0.8
-5.664e-01,39.2,0.4
-5.632e-01,39.2,0.4
-5.600e-01,39.2,0.4
-5.568e-01,39.6,0.4
-5.536e-01,39.6,0.4
-5.504e-01,39.2,0.4
-5.472e-01,39.6,0.8
-5.440e-01,39.6,0.4
-5.408e-01,40,0.4
-5.376e-01,40.4,0.4
-5.344e-01,40.4,0.8
-5.312e-01,40,0.4
-5.280e-01,40.4,0.4
-5.248e-01,40,0.4
-5.216e-01,40,0.4
-5.184e-01,40.4,0.4
-5.152e-01,40,0.4
-5.120e-01,40.4,0.4
-5.088e-01,40.4,0.8
-5.056e-01,40.8,0.4
-5.024e-01,40.4,0.4
-4.992e-01,40.4,0.8
-4.960e-01,40.4,0.4
-4.928e-01,40.4,0.4
-4.896e-01,40.8,0.4
-4.864e-01,40.8,0.4
-4.832e-01,40.8,0.4
-4.800e-01,40.8,0.4
-4.768e-01,40.8,0.8
-4.736e-01,40.8,0.8
-4.704e-01,41.2,0.4
-4.672e-01,41.2,0.8
-4.640e-01,41.2,0.4
-4.608e-01,41.2,0.4
-4.576e-01,41.6,0.4
-4.544e-01,41.2,0.4
-4.512e-01,41.6,0.8
-4.480e-01,41.6,0.4
-4.448e-01,41.6,0.8
-4.416e-01,41.6,0.4
-4.384e-01,42,0.4
-4.352e-01,41.6,0.4
-4.320e-01,42,0.4
-4.288e-01,42,0.4
-4.256e-01,42,0.4
-4.224e-01,42,0.4
-4.192e-01,42.4,0.4
-4.160e-01,42,0.4
-4.128e-01,42.4,0.4
-4.096e-01,42.4,0.8
-4.064e-01,42,0.4
-4.032e-01,42.4,0.8
-4.000e-01,42.4,0.8
-3.968e-01,42.4,0.8
-3.936e-01,42.4,0.8
-3.904e-01,42.8,0.4
-3.872e-01,42.4,0.4
-3.840e-01,42.8,0.8
-3.808e-01,42.8,0.4
-3.776e-01,42.8,0.8
-3.744e-01,43.2,0.8
-3.712e-01,43.6,0.4
-3.680e-01,43.2,0.4
-3.648e-01,43.2,0.8
-3.616e-01,43.2,0.8
-3.584e-01,43.2,0.4
-3.552e-01,43.6,0.4
-3.520e-01,43.6,0.4
-3.488e-01,43.6,0.8
-3.456e-01,43.6,0.4
-3.424e-01,43.6,0.4
-3.392e-01,44,0.4
-3.360e-01,43.6,0.4
-3.328e-01,44,0.8
-3.296e-01,44,0.4
-3.264e-01,43.6,0.4
-3.232e-01,44,0.4
-3.200e-01,44,0.4
-3.168e-01,44,0.8
-3.136e-01,44,0.4
-3.104e-01,44,0.4
-3.072e-01,44,0.4
-3.040e-01,44.4,0.4
-3.008e-01,44.4,0.8
-2.976e-01,44.4,0.8
-2.944e-01,44.4,0.8
-2.912e-01,44.4,0.4
-2.880e-01,44.8,0.4
-2.848e-01,44.8,0.4
-2.816e-01,44.8,0.4
-2.784e-01,44.8,0.4
-2.752e-01,44.8,0.4
-2.720e-01,45.2,0.4
-2.688e-01,45.2,0.4
-2.656e-01,45.2,0.4
-2.624e-01,45.6,0.8
-2.592e-01,45.2,0.8
-2.560e-01,45.2,0.4
-2.528e-01,45.6,0.4
-2.496e-01,45.6,0.4
-2.464e-01,45.6,0.8
-2.432e-01,45.6,0.4
-2.400e-01,45.6,0.4
-2.368e-01,45.6,0.8
-2.336e-01,45.6,0.4
-2.304e-01,46,0.8
-2.272e-01,46,0.4
-2.240e-01,46,0.8
-2.208e-01,46,0.4
-2.176e-01,46,0.8
-2.144e-01,46,0.8
-2.112e-01,46.4,0.8
-2.080e-01,46.4,0.4
-2.048e-01,46.4,0.4
-2.016e-01,46.4,0.4
-1.984e-01,46.4,0.4
-1.952e-01,46.4,0.4
-1.920e-01,46.4,0.8
-1.888e-01,46.4,0.4
-1.856e-01,47.2,0.4
-1.824e-01,46.8,0.4
-1.792e-01,47.2,0.8
-1.760e-01,46.8,0.4
-1.728e-01,47.2,0.4
-1.696e-01,47.2,0.8
-1.664e-01,47.2,0.4
-1.632e-01,47.6,0.4
-1.600e-01,47.2,0.4
-1.568e-01,47.2,0.8
-1.536e-01,47.2,0.4
-1.504e-01,47.6,0.4
-1.472e-01,47.2,0.4
-1.440e-01,47.2,0.4
-1.408e-01,47.6,0.4
-1.376e-01,47.6,0.4
-1.344e-01,47.6,0.4
-1.312e-01,48,0.8
-1.280e-01,48,0.4
-1.248e-01,48,0.4
-1.216e-01,47.6,0.8
-1.184e-01,48,0.4
-1.152e-01,47.6,0.4
-1.120e-01,48.4,0.8
-1.088e-01,48.4,0.4
-1.056e-01,48,0.4
-1.024e-01,48.4,0.4
-9.920e-02,48.4,0.4
-9.600e-02,48.4,0.4
-9.280e-02,48.8,0.4
-8.960e-02,48.8,0.4
-8.640e-02,48.8,0.8
-8.320e-02,48.8,0.8
-8.000e-02,48.8,0.4
-7.680e-02,48.8,0.8
-7.360e-02,48.8,0.8
-7.040e-02,49.2,0.8
-6.720e-02,49.2,0.4
-6.400e-02,48.8,0.8
-6.080e-02,49.2,0.4
-5.760e-02,48.8,0.4
-5.440e-02,49.2,0.8
-5.120e-02,49.2,0.4
-4.800e-02,49.6,0.4
-4.480e-02,49.2,0.4
-4.160e-02,49.2,0.4
-3.840e-02,49.2,0.4
-3.520e-02,49.6,0.4
-3.200e-02,49.6,0.4
-2.880e-02,49.2,0.8
-2.560e-02,49.6,0.4
-2.240e-02,49.6,0.4
-1.920e-02,50,0.4
-1.600e-02,50,0.8
-1.280e-02,50,0.4
-9.600e-03,50,0.8
-6.400e-03,50,0.8
-3.200e-03,50.4,0.4
5.850e-14,50.4,0.4
3.200e-03,50.4,0.4
6.400e-03,50.4,0.8
9.600e-03,50.4,0.4
1.280e-02,50.4,0.4
1.600e-02,50.8,0.8
1.920e-02,50.4,0.4
2.240e-02,50.8,0.8
2.560e-02,50.8,0.4
